Using col balancing.
Matrix size is 2396130 rows by 3231961 columns.
nnz = 277058644 density = 3.57763e-05
[Rank 0]: matrix size 2396130 rows 8417 columns 136413066 nnz
[Rank 1]: matrix size 2396130 rows 8417 columns 5339507 nnz
[Rank 2]: matrix size 2396130 rows 8417 columns 1890384 nnz
[Rank 3]: matrix size 2396130 rows 8417 columns 1111298 nnz
[Rank 4]: matrix size 2396130 rows 8417 columns 984161 nnz
[Rank 5]: matrix size 2396130 rows 8417 columns 714022 nnz
[Rank 6]: matrix size 2396130 rows 8417 columns 527812 nnz
[Rank 7]: matrix size 2396130 rows 8417 columns 504729 nnz
[Rank 8]: matrix size 2396130 rows 8417 columns 354016 nnz
[Rank 9]: matrix size 2396130 rows 8417 columns 326219 nnz
[Rank 10]: matrix size 2396130 rows 8417 columns 395132 nnz
[Rank 11]: matrix size 2396130 rows 8417 columns 326047 nnz
[Rank 12]: matrix size 2396130 rows 8417 columns 222801 nnz
[Rank 13]: matrix size 2396130 rows 8417 columns 239374 nnz
[Rank 14]: matrix size 2396130 rows 8417 columns 194773 nnz
[Rank 15]: matrix size 2396130 rows 8417 columns 156834 nnz
[Rank 16]: matrix size 2396130 rows 8417 columns 157562 nnz
[Rank 17]: matrix size 2396130 rows 8417 columns 145105 nnz
[Rank 18]: matrix size 2396130 rows 8417 columns 117090962 nnz
[Rank 19]: matrix size 2396130 rows 8417 columns 23889 nnz
[Rank 20]: matrix size 2396130 rows 8417 columns 20354 nnz
[Rank 21]: matrix size 2396130 rows 8417 columns 19362 nnz
[Rank 22]: matrix size 2396130 rows 8417 columns 22566 nnz
[Rank 23]: matrix size 2396130 rows 8417 columns 19288 nnz
[Rank 24]: matrix size 2396130 rows 8417 columns 22137 nnz
[Rank 25]: matrix size 2396130 rows 8417 columns 21672 nnz
[Rank 26]: matrix size 2396130 rows 8417 columns 19530 nnz
[Rank 27]: matrix size 2396130 rows 8417 columns 19564 nnz
[Rank 28]: matrix size 2396130 rows 8417 columns 17998 nnz
[Rank 29]: matrix size 2396130 rows 8417 columns 18037 nnz
[Rank 30]: matrix size 2396130 rows 8417 columns 18470 nnz
[Rank 31]: matrix size 2396130 rows 8417 columns 18732 nnz
[Rank 32]: matrix size 2396130 rows 8417 columns 18562 nnz
[Rank 33]: matrix size 2396130 rows 8417 columns 18085 nnz
[Rank 34]: matrix size 2396130 rows 8417 columns 18676 nnz
[Rank 35]: matrix size 2396130 rows 8417 columns 19127 nnz
[Rank 36]: matrix size 2396130 rows 8417 columns 18655 nnz
[Rank 37]: matrix size 2396130 rows 8417 columns 19112 nnz
[Rank 38]: matrix size 2396130 rows 8417 columns 19295 nnz
[Rank 39]: matrix size 2396130 rows 8417 columns 19588 nnz
[Rank 40]: matrix size 2396130 rows 8417 columns 19675 nnz
[Rank 41]: matrix size 2396130 rows 8417 columns 18738 nnz
[Rank 42]: matrix size 2396130 rows 8417 columns 19257 nnz
[Rank 43]: matrix size 2396130 rows 8417 columns 18258 nnz
[Rank 44]: matrix size 2396130 rows 8417 columns 18621 nnz
[Rank 45]: matrix size 2396130 rows 8417 columns 18957 nnz
[Rank 46]: matrix size 2396130 rows 8417 columns 20156 nnz
[Rank 47]: matrix size 2396130 rows 8417 columns 18328 nnz
[Rank 48]: matrix size 2396130 rows 8417 columns 19582 nnz
[Rank 49]: matrix size 2396130 rows 8417 columns 20028 nnz
[Rank 50]: matrix size 2396130 rows 8417 columns 19128 nnz
[Rank 51]: matrix size 2396130 rows 8417 columns 19062 nnz
[Rank 52]: matrix size 2396130 rows 8417 columns 21112 nnz
[Rank 53]: matrix size 2396130 rows 8417 columns 18421 nnz
[Rank 54]: matrix size 2396130 rows 8417 columns 19562 nnz
[Rank 55]: matrix size 2396130 rows 8417 columns 23601 nnz
[Rank 56]: matrix size 2396130 rows 8417 columns 17857 nnz
[Rank 57]: matrix size 2396130 rows 8417 columns 17655 nnz
[Rank 58]: matrix size 2396130 rows 8417 columns 18218 nnz
[Rank 59]: matrix size 2396130 rows 8417 columns 17967 nnz
[Rank 60]: matrix size 2396130 rows 8417 columns 19148 nnz
[Rank 61]: matrix size 2396130 rows 8417 columns 18278 nnz
[Rank 62]: matrix size 2396130 rows 8417 columns 18152 nnz
[Rank 63]: matrix size 2396130 rows 8417 columns 19151 nnz
[Rank 64]: matrix size 2396130 rows 8417 columns 19853 nnz
[Rank 65]: matrix size 2396130 rows 8417 columns 24347 nnz
[Rank 66]: matrix size 2396130 rows 8417 columns 26657 nnz
[Rank 67]: matrix size 2396130 rows 8417 columns 20260 nnz
[Rank 68]: matrix size 2396130 rows 8417 columns 18760 nnz
[Rank 69]: matrix size 2396130 rows 8417 columns 18987 nnz
[Rank 70]: matrix size 2396130 rows 8417 columns 17887 nnz
[Rank 71]: matrix size 2396130 rows 8417 columns 17891 nnz
[Rank 72]: matrix size 2396130 rows 8417 columns 17877 nnz
[Rank 73]: matrix size 2396130 rows 8417 columns 18351 nnz
[Rank 74]: matrix size 2396130 rows 8417 columns 18037 nnz
[Rank 75]: matrix size 2396130 rows 8417 columns 19438 nnz
[Rank 76]: matrix size 2396130 rows 8417 columns 18902 nnz
[Rank 77]: matrix size 2396130 rows 8417 columns 18329 nnz
[Rank 78]: matrix size 2396130 rows 8417 columns 18801 nnz
[Rank 79]: matrix size 2396130 rows 8417 columns 20813 nnz
[Rank 80]: matrix size 2396130 rows 8417 columns 18619 nnz
[Rank 81]: matrix size 2396130 rows 8417 columns 18818 nnz
[Rank 82]: matrix size 2396130 rows 8417 columns 19754 nnz
[Rank 83]: matrix size 2396130 rows 8417 columns 19633 nnz
[Rank 84]: matrix size 2396130 rows 8417 columns 20319 nnz
[Rank 85]: matrix size 2396130 rows 8417 columns 21873 nnz
[Rank 86]: matrix size 2396130 rows 8417 columns 20147 nnz
[Rank 87]: matrix size 2396130 rows 8417 columns 19552 nnz
[Rank 88]: matrix size 2396130 rows 8417 columns 19563 nnz
[Rank 89]: matrix size 2396130 rows 8417 columns 19486 nnz
[Rank 90]: matrix size 2396130 rows 8417 columns 18799 nnz
[Rank 91]: matrix size 2396130 rows 8417 columns 18658 nnz
[Rank 92]: matrix size 2396130 rows 8417 columns 19012 nnz
[Rank 93]: matrix size 2396130 rows 8417 columns 20507 nnz
[Rank 94]: matrix size 2396130 rows 8417 columns 20642 nnz
[Rank 95]: matrix size 2396130 rows 8417 columns 18269 nnz
[Rank 96]: matrix size 2396130 rows 8417 columns 19010 nnz
[Rank 97]: matrix size 2396130 rows 8417 columns 19111 nnz
[Rank 98]: matrix size 2396130 rows 8417 columns 17833 nnz
[Rank 99]: matrix size 2396130 rows 8417 columns 20886 nnz
[Rank 100]: matrix size 2396130 rows 8417 columns 18158 nnz
[Rank 101]: matrix size 2396130 rows 8417 columns 18822 nnz
[Rank 102]: matrix size 2396130 rows 8417 columns 18613 nnz
[Rank 103]: matrix size 2396130 rows 8417 columns 19214 nnz
[Rank 104]: matrix size 2396130 rows 8417 columns 20397 nnz
[Rank 105]: matrix size 2396130 rows 8417 columns 19585 nnz
[Rank 106]: matrix size 2396130 rows 8417 columns 20931 nnz
[Rank 107]: matrix size 2396130 rows 8417 columns 21618 nnz
[Rank 108]: matrix size 2396130 rows 8417 columns 18974 nnz
[Rank 109]: matrix size 2396130 rows 8417 columns 20352 nnz
[Rank 110]: matrix size 2396130 rows 8417 columns 18606 nnz
[Rank 111]: matrix size 2396130 rows 8417 columns 18663 nnz
[Rank 112]: matrix size 2396130 rows 8417 columns 18443 nnz
[Rank 113]: matrix size 2396130 rows 8417 columns 18544 nnz
[Rank 114]: matrix size 2396130 rows 8417 columns 18512 nnz
[Rank 115]: matrix size 2396130 rows 8417 columns 18684 nnz
[Rank 116]: matrix size 2396130 rows 8417 columns 22411 nnz
[Rank 117]: matrix size 2396130 rows 8417 columns 21849 nnz
[Rank 118]: matrix size 2396130 rows 8417 columns 19279 nnz
[Rank 119]: matrix size 2396130 rows 8417 columns 18499 nnz
[Rank 120]: matrix size 2396130 rows 8417 columns 21763 nnz
[Rank 121]: matrix size 2396130 rows 8417 columns 19624 nnz
[Rank 122]: matrix size 2396130 rows 8417 columns 19035 nnz
[Rank 123]: matrix size 2396130 rows 8417 columns 23346 nnz
[Rank 124]: matrix size 2396130 rows 8417 columns 19124 nnz
[Rank 125]: matrix size 2396130 rows 8417 columns 21944 nnz
[Rank 126]: matrix size 2396130 rows 8417 columns 21423 nnz
[Rank 127]: matrix size 2396130 rows 8417 columns 18994 nnz
[Rank 128]: matrix size 2396130 rows 8417 columns 21840 nnz
[Rank 129]: matrix size 2396130 rows 8417 columns 21079 nnz
[Rank 130]: matrix size 2396130 rows 8417 columns 21092 nnz
[Rank 131]: matrix size 2396130 rows 8417 columns 25710 nnz
[Rank 132]: matrix size 2396130 rows 8417 columns 23202 nnz
[Rank 133]: matrix size 2396130 rows 8417 columns 23183 nnz
[Rank 134]: matrix size 2396130 rows 8417 columns 24595 nnz
[Rank 135]: matrix size 2396130 rows 8417 columns 23087 nnz
[Rank 136]: matrix size 2396130 rows 8417 columns 18810 nnz
[Rank 137]: matrix size 2396130 rows 8417 columns 26485 nnz
[Rank 138]: matrix size 2396130 rows 8417 columns 23941 nnz
[Rank 139]: matrix size 2396130 rows 8417 columns 25477 nnz
[Rank 140]: matrix size 2396130 rows 8417 columns 53270 nnz
[Rank 141]: matrix size 2396130 rows 8417 columns 42752 nnz
[Rank 142]: matrix size 2396130 rows 8417 columns 47753 nnz
[Rank 143]: matrix size 2396130 rows 8417 columns 46143 nnz
[Rank 144]: matrix size 2396130 rows 8417 columns 45430 nnz
[Rank 145]: matrix size 2396130 rows 8417 columns 38909 nnz
[Rank 146]: matrix size 2396130 rows 8417 columns 42752 nnz
[Rank 147]: matrix size 2396130 rows 8417 columns 40626 nnz
[Rank 148]: matrix size 2396130 rows 8417 columns 54200 nnz
[Rank 149]: matrix size 2396130 rows 8417 columns 42204 nnz
[Rank 150]: matrix size 2396130 rows 8417 columns 44992 nnz
[Rank 151]: matrix size 2396130 rows 8417 columns 37426 nnz
[Rank 152]: matrix size 2396130 rows 8417 columns 30991 nnz
[Rank 153]: matrix size 2396130 rows 8417 columns 21464 nnz
[Rank 154]: matrix size 2396130 rows 8417 columns 19256 nnz
[Rank 155]: matrix size 2396130 rows 8417 columns 18455 nnz
[Rank 156]: matrix size 2396130 rows 8417 columns 21997 nnz
[Rank 157]: matrix size 2396130 rows 8417 columns 19081 nnz
[Rank 158]: matrix size 2396130 rows 8417 columns 22174 nnz
[Rank 159]: matrix size 2396130 rows 8417 columns 18534 nnz
[Rank 160]: matrix size 2396130 rows 8417 columns 18648 nnz
[Rank 161]: matrix size 2396130 rows 8417 columns 18375 nnz
[Rank 162]: matrix size 2396130 rows 8417 columns 17662 nnz
[Rank 163]: matrix size 2396130 rows 8417 columns 17765 nnz
[Rank 164]: matrix size 2396130 rows 8417 columns 18144 nnz
[Rank 165]: matrix size 2396130 rows 8417 columns 17843 nnz
[Rank 166]: matrix size 2396130 rows 8417 columns 17416 nnz
[Rank 167]: matrix size 2396130 rows 8417 columns 17243 nnz
[Rank 168]: matrix size 2396130 rows 8417 columns 18863 nnz
[Rank 169]: matrix size 2396130 rows 8417 columns 18286 nnz
[Rank 170]: matrix size 2396130 rows 8417 columns 17840 nnz
[Rank 171]: matrix size 2396130 rows 8417 columns 18678 nnz
[Rank 172]: matrix size 2396130 rows 8417 columns 18607 nnz
[Rank 173]: matrix size 2396130 rows 8417 columns 17923 nnz
[Rank 174]: matrix size 2396130 rows 8417 columns 18202 nnz
[Rank 175]: matrix size 2396130 rows 8417 columns 17931 nnz
[Rank 176]: matrix size 2396130 rows 8417 columns 17918 nnz
[Rank 177]: matrix size 2396130 rows 8417 columns 19634 nnz
[Rank 178]: matrix size 2396130 rows 8417 columns 17544 nnz
[Rank 179]: matrix size 2396130 rows 8417 columns 18894 nnz
[Rank 180]: matrix size 2396130 rows 8417 columns 19100 nnz
[Rank 181]: matrix size 2396130 rows 8417 columns 18413 nnz
[Rank 182]: matrix size 2396130 rows 8417 columns 18126 nnz
[Rank 183]: matrix size 2396130 rows 8417 columns 20192 nnz
[Rank 184]: matrix size 2396130 rows 8417 columns 17888 nnz
[Rank 185]: matrix size 2396130 rows 8417 columns 18449 nnz
[Rank 186]: matrix size 2396130 rows 8417 columns 22321 nnz
[Rank 187]: matrix size 2396130 rows 8417 columns 17289 nnz
[Rank 188]: matrix size 2396130 rows 8417 columns 18347 nnz
[Rank 189]: matrix size 2396130 rows 8417 columns 17244 nnz
[Rank 190]: matrix size 2396130 rows 8417 columns 18329 nnz
[Rank 191]: matrix size 2396130 rows 8417 columns 17214 nnz
[Rank 192]: matrix size 2396130 rows 8417 columns 17938 nnz
[Rank 193]: matrix size 2396130 rows 8417 columns 18250 nnz
[Rank 194]: matrix size 2396130 rows 8417 columns 23273 nnz
[Rank 195]: matrix size 2396130 rows 8417 columns 25840 nnz
[Rank 196]: matrix size 2396130 rows 8417 columns 18973 nnz
[Rank 197]: matrix size 2396130 rows 8417 columns 18355 nnz
[Rank 198]: matrix size 2396130 rows 8417 columns 18352 nnz
[Rank 199]: matrix size 2396130 rows 8417 columns 17524 nnz
[Rank 200]: matrix size 2396130 rows 8417 columns 16847 nnz
[Rank 201]: matrix size 2396130 rows 8417 columns 17672 nnz
[Rank 202]: matrix size 2396130 rows 8417 columns 17536 nnz
[Rank 203]: matrix size 2396130 rows 8417 columns 18616 nnz
[Rank 204]: matrix size 2396130 rows 8417 columns 18126 nnz
[Rank 205]: matrix size 2396130 rows 8417 columns 17912 nnz
[Rank 206]: matrix size 2396130 rows 8417 columns 18351 nnz
[Rank 207]: matrix size 2396130 rows 8417 columns 19440 nnz
[Rank 208]: matrix size 2396130 rows 8417 columns 18077 nnz
[Rank 209]: matrix size 2396130 rows 8417 columns 18352 nnz
[Rank 210]: matrix size 2396130 rows 8417 columns 19126 nnz
[Rank 211]: matrix size 2396130 rows 8417 columns 19302 nnz
[Rank 212]: matrix size 2396130 rows 8417 columns 20692 nnz
[Rank 213]: matrix size 2396130 rows 8417 columns 18503 nnz
[Rank 214]: matrix size 2396130 rows 8417 columns 19614 nnz
[Rank 215]: matrix size 2396130 rows 8417 columns 19186 nnz
[Rank 216]: matrix size 2396130 rows 8417 columns 17997 nnz
[Rank 217]: matrix size 2396130 rows 8416 columns 18139 nnz
[Rank 218]: matrix size 2396130 rows 8416 columns 18090 nnz
[Rank 219]: matrix size 2396130 rows 8416 columns 19713 nnz
[Rank 220]: matrix size 2396130 rows 8416 columns 17926 nnz
[Rank 221]: matrix size 2396130 rows 8416 columns 18083 nnz
[Rank 222]: matrix size 2396130 rows 8416 columns 18482 nnz
[Rank 223]: matrix size 2396130 rows 8416 columns 17595 nnz
[Rank 224]: matrix size 2396130 rows 8416 columns 17976 nnz
[Rank 225]: matrix size 2396130 rows 8416 columns 19943 nnz
[Rank 226]: matrix size 2396130 rows 8416 columns 17582 nnz
[Rank 227]: matrix size 2396130 rows 8416 columns 18304 nnz
[Rank 228]: matrix size 2396130 rows 8416 columns 18638 nnz
[Rank 229]: matrix size 2396130 rows 8416 columns 19665 nnz
[Rank 230]: matrix size 2396130 rows 8416 columns 19587 nnz
[Rank 231]: matrix size 2396130 rows 8416 columns 20359 nnz
[Rank 232]: matrix size 2396130 rows 8416 columns 18984 nnz
[Rank 233]: matrix size 2396130 rows 8416 columns 19470 nnz
[Rank 234]: matrix size 2396130 rows 8416 columns 18081 nnz
[Rank 235]: matrix size 2396130 rows 8416 columns 18307 nnz
[Rank 236]: matrix size 2396130 rows 8416 columns 18165 nnz
[Rank 237]: matrix size 2396130 rows 8416 columns 17533 nnz
[Rank 238]: matrix size 2396130 rows 8416 columns 18194 nnz
[Rank 239]: matrix size 2396130 rows 8416 columns 21277 nnz
[Rank 240]: matrix size 2396130 rows 8416 columns 22299 nnz
[Rank 241]: matrix size 2396130 rows 8416 columns 18974 nnz
[Rank 242]: matrix size 2396130 rows 8416 columns 18041 nnz
[Rank 243]: matrix size 2396130 rows 8416 columns 18557 nnz
[Rank 244]: matrix size 2396130 rows 8416 columns 18629 nnz
[Rank 245]: matrix size 2396130 rows 8416 columns 18542 nnz
[Rank 246]: matrix size 2396130 rows 8416 columns 20097 nnz
[Rank 247]: matrix size 2396130 rows 8416 columns 55780 nnz
[Rank 248]: matrix size 2396130 rows 8416 columns 146262 nnz
[Rank 249]: matrix size 2396130 rows 8416 columns 167239 nnz
[Rank 250]: matrix size 2396130 rows 8416 columns 222708 nnz
[Rank 251]: matrix size 2396130 rows 8416 columns 120536 nnz
[Rank 252]: matrix size 2396130 rows 8416 columns 96777 nnz
[Rank 253]: matrix size 2396130 rows 8416 columns 161233 nnz
[Rank 254]: matrix size 2396130 rows 8416 columns 174107 nnz
[Rank 255]: matrix size 2396130 rows 8416 columns 144630 nnz
[Rank 256]: matrix size 2396130 rows 8416 columns 74572 nnz
[Rank 257]: matrix size 2396130 rows 8416 columns 93000 nnz
[Rank 258]: matrix size 2396130 rows 8416 columns 197605 nnz
[Rank 259]: matrix size 2396130 rows 8416 columns 142511 nnz
[Rank 260]: matrix size 2396130 rows 8416 columns 133186 nnz
[Rank 261]: matrix size 2396130 rows 8416 columns 208279 nnz
[Rank 262]: matrix size 2396130 rows 8416 columns 139016 nnz
[Rank 263]: matrix size 2396130 rows 8416 columns 131767 nnz
[Rank 264]: matrix size 2396130 rows 8416 columns 93968 nnz
[Rank 265]: matrix size 2396130 rows 8416 columns 141022 nnz
[Rank 266]: matrix size 2396130 rows 8416 columns 96733 nnz
[Rank 267]: matrix size 2396130 rows 8416 columns 21541 nnz
[Rank 268]: matrix size 2396130 rows 8416 columns 19127 nnz
[Rank 269]: matrix size 2396130 rows 8416 columns 18302 nnz
[Rank 270]: matrix size 2396130 rows 8416 columns 21720 nnz
[Rank 271]: matrix size 2396130 rows 8416 columns 18258 nnz
[Rank 272]: matrix size 2396130 rows 8416 columns 20993 nnz
[Rank 273]: matrix size 2396130 rows 8416 columns 20361 nnz
[Rank 274]: matrix size 2396130 rows 8416 columns 18691 nnz
[Rank 275]: matrix size 2396130 rows 8416 columns 18390 nnz
[Rank 276]: matrix size 2396130 rows 8416 columns 17674 nnz
[Rank 277]: matrix size 2396130 rows 8416 columns 17144 nnz
[Rank 278]: matrix size 2396130 rows 8416 columns 17693 nnz
[Rank 279]: matrix size 2396130 rows 8416 columns 18221 nnz
[Rank 280]: matrix size 2396130 rows 8416 columns 17236 nnz
[Rank 281]: matrix size 2396130 rows 8416 columns 17512 nnz
[Rank 282]: matrix size 2396130 rows 8416 columns 17143 nnz
[Rank 283]: matrix size 2396130 rows 8416 columns 18855 nnz
[Rank 284]: matrix size 2396130 rows 8416 columns 18089 nnz
[Rank 285]: matrix size 2396130 rows 8416 columns 17815 nnz
[Rank 286]: matrix size 2396130 rows 8416 columns 18641 nnz
[Rank 287]: matrix size 2396130 rows 8416 columns 18305 nnz
[Rank 288]: matrix size 2396130 rows 8416 columns 18228 nnz
[Rank 289]: matrix size 2396130 rows 8416 columns 18190 nnz
[Rank 290]: matrix size 2396130 rows 8416 columns 17802 nnz
[Rank 291]: matrix size 2396130 rows 8416 columns 17638 nnz
[Rank 292]: matrix size 2396130 rows 8416 columns 17920 nnz
[Rank 293]: matrix size 2396130 rows 8416 columns 19114 nnz
[Rank 294]: matrix size 2396130 rows 8416 columns 18515 nnz
[Rank 295]: matrix size 2396130 rows 8416 columns 18370 nnz
[Rank 296]: matrix size 2396130 rows 8416 columns 19070 nnz
[Rank 297]: matrix size 2396130 rows 8416 columns 18114 nnz
[Rank 298]: matrix size 2396130 rows 8416 columns 19301 nnz
[Rank 299]: matrix size 2396130 rows 8416 columns 19050 nnz
[Rank 300]: matrix size 2396130 rows 8416 columns 18834 nnz
[Rank 301]: matrix size 2396130 rows 8416 columns 17858 nnz
[Rank 302]: matrix size 2396130 rows 8416 columns 22029 nnz
[Rank 303]: matrix size 2396130 rows 8416 columns 17218 nnz
[Rank 304]: matrix size 2396130 rows 8416 columns 18025 nnz
[Rank 305]: matrix size 2396130 rows 8416 columns 17180 nnz
[Rank 306]: matrix size 2396130 rows 8416 columns 17894 nnz
[Rank 307]: matrix size 2396130 rows 8416 columns 17265 nnz
[Rank 308]: matrix size 2396130 rows 8416 columns 17670 nnz
[Rank 309]: matrix size 2396130 rows 8416 columns 18333 nnz
[Rank 310]: matrix size 2396130 rows 8416 columns 22492 nnz
[Rank 311]: matrix size 2396130 rows 8416 columns 19404 nnz
[Rank 312]: matrix size 2396130 rows 8416 columns 25456 nnz
[Rank 313]: matrix size 2396130 rows 8416 columns 18781 nnz
[Rank 314]: matrix size 2396130 rows 8416 columns 18087 nnz
[Rank 315]: matrix size 2396130 rows 8416 columns 17824 nnz
[Rank 316]: matrix size 2396130 rows 8416 columns 17050 nnz
[Rank 317]: matrix size 2396130 rows 8416 columns 17164 nnz
[Rank 318]: matrix size 2396130 rows 8416 columns 17610 nnz
[Rank 319]: matrix size 2396130 rows 8416 columns 17948 nnz
[Rank 320]: matrix size 2396130 rows 8416 columns 18449 nnz
[Rank 321]: matrix size 2396130 rows 8416 columns 18186 nnz
[Rank 322]: matrix size 2396130 rows 8416 columns 17839 nnz
[Rank 323]: matrix size 2396130 rows 8416 columns 18461 nnz
[Rank 324]: matrix size 2396130 rows 8416 columns 19486 nnz
[Rank 325]: matrix size 2396130 rows 8416 columns 17598 nnz
[Rank 326]: matrix size 2396130 rows 8416 columns 18236 nnz
[Rank 327]: matrix size 2396130 rows 8416 columns 18693 nnz
[Rank 328]: matrix size 2396130 rows 8416 columns 19083 nnz
[Rank 329]: matrix size 2396130 rows 8416 columns 19778 nnz
[Rank 330]: matrix size 2396130 rows 8416 columns 19352 nnz
[Rank 331]: matrix size 2396130 rows 8416 columns 18628 nnz
[Rank 332]: matrix size 2396130 rows 8416 columns 19562 nnz
[Rank 333]: matrix size 2396130 rows 8416 columns 18455 nnz
[Rank 334]: matrix size 2396130 rows 8416 columns 18048 nnz
[Rank 335]: matrix size 2396130 rows 8416 columns 17928 nnz
[Rank 336]: matrix size 2396130 rows 8416 columns 17634 nnz
[Rank 337]: matrix size 2396130 rows 8416 columns 18475 nnz
[Rank 338]: matrix size 2396130 rows 8416 columns 17925 nnz
[Rank 339]: matrix size 2396130 rows 8416 columns 17858 nnz
[Rank 340]: matrix size 2396130 rows 8416 columns 18540 nnz
[Rank 341]: matrix size 2396130 rows 8416 columns 17322 nnz
[Rank 342]: matrix size 2396130 rows 8416 columns 17824 nnz
[Rank 343]: matrix size 2396130 rows 8416 columns 19886 nnz
[Rank 344]: matrix size 2396130 rows 8416 columns 17376 nnz
[Rank 345]: matrix size 2396130 rows 8416 columns 18434 nnz
[Rank 346]: matrix size 2396130 rows 8416 columns 18117 nnz
[Rank 347]: matrix size 2396130 rows 8416 columns 19259 nnz
[Rank 348]: matrix size 2396130 rows 8416 columns 18682 nnz
[Rank 349]: matrix size 2396130 rows 8416 columns 19609 nnz
[Rank 350]: matrix size 2396130 rows 8416 columns 20809 nnz
[Rank 351]: matrix size 2396130 rows 8416 columns 17740 nnz
[Rank 352]: matrix size 2396130 rows 8416 columns 19972 nnz
[Rank 353]: matrix size 2396130 rows 8416 columns 17346 nnz
[Rank 354]: matrix size 2396130 rows 8416 columns 18056 nnz
[Rank 355]: matrix size 2396130 rows 8416 columns 18110 nnz
[Rank 356]: matrix size 2396130 rows 8416 columns 17398 nnz
[Rank 357]: matrix size 2396130 rows 8416 columns 18242 nnz
[Rank 358]: matrix size 2396130 rows 8416 columns 21589 nnz
[Rank 359]: matrix size 2396130 rows 8416 columns 21829 nnz
[Rank 360]: matrix size 2396130 rows 8416 columns 18466 nnz
[Rank 361]: matrix size 2396130 rows 8416 columns 17928 nnz
[Rank 362]: matrix size 2396130 rows 8416 columns 18052 nnz
[Rank 363]: matrix size 2396130 rows 8416 columns 18525 nnz
[Rank 364]: matrix size 2396130 rows 8416 columns 17865 nnz
[Rank 365]: matrix size 2396130 rows 8416 columns 21433 nnz
[Rank 366]: matrix size 2396130 rows 8416 columns 19707 nnz
[Rank 367]: matrix size 2396130 rows 8416 columns 22791 nnz
[Rank 368]: matrix size 2396130 rows 8416 columns 33389 nnz
[Rank 369]: matrix size 2396130 rows 8416 columns 32580 nnz
[Rank 370]: matrix size 2396130 rows 8416 columns 32309 nnz
[Rank 371]: matrix size 2396130 rows 8416 columns 35176 nnz
[Rank 372]: matrix size 2396130 rows 8416 columns 33481 nnz
[Rank 373]: matrix size 2396130 rows 8416 columns 34637 nnz
[Rank 374]: matrix size 2396130 rows 8416 columns 33484 nnz
[Rank 375]: matrix size 2396130 rows 8416 columns 35185 nnz
[Rank 376]: matrix size 2396130 rows 8416 columns 35122 nnz
[Rank 377]: matrix size 2396130 rows 8416 columns 33750 nnz
[Rank 378]: matrix size 2396130 rows 8416 columns 36110 nnz
[Rank 379]: matrix size 2396130 rows 8416 columns 36138 nnz
[Rank 380]: matrix size 2396130 rows 8416 columns 33911 nnz
[Rank 381]: matrix size 2396130 rows 8416 columns 31181 nnz
[Rank 382]: matrix size 2396130 rows 8416 columns 33473 nnz
[Rank 383]: matrix size 2396130 rows 8416 columns 81234 nnz
Total ncols: 3231961
s = 8

Epoch: 1, Iteration: 2396130, Loss: 0.2167145946149003, Training Accuracy: 95.8163%
Epoch: 2, Iteration: 4792260, Loss: 0.1639683838307666, Training Accuracy: 96.0436%
Epoch: 3, Iteration: 7188390, Loss: 0.1432354416122814, Training Accuracy: 96.1155%
Epoch: 4, Iteration: 9584520, Loss: 0.1322134368407356, Training Accuracy: 96.1091%
Epoch: 5, Iteration: 11980650, Loss: 0.1253206385552874, Training Accuracy: 96.1466%
Epoch: 6, Iteration: 14376780, Loss: 0.120541346182671, Training Accuracy: 96.1871%
Epoch: 7, Iteration: 16772910, Loss: 0.1169811500599667, Training Accuracy: 96.2381%
Epoch: 8, Iteration: 19169040, Loss: 0.1141860239751093, Training Accuracy: 96.2923%
Epoch: 9, Iteration: 21565170, Loss: 0.1119023671159727, Training Accuracy: 96.3218%
Epoch: 10, Iteration: 23961300, Loss: 0.1099779873051615, Training Accuracy: 96.3585%
Epoch: 11, Iteration: 26357430, Loss: 0.1083162849143911, Training Accuracy: 96.3965%
Epoch: 12, Iteration: 28753560, Loss: 0.1068531161014457, Training Accuracy: 96.4244%
Epoch: 13, Iteration: 31149690, Loss: 0.1055442723617454, Training Accuracy: 96.4477%
Epoch: 14, Iteration: 33545820, Loss: 0.104358313958539, Training Accuracy: 96.4665%
Epoch: 15, Iteration: 35941950, Loss: 0.1032722727010839, Training Accuracy: 96.4874%
Epoch: 16, Iteration: 38338080, Loss: 0.1022689724096098, Training Accuracy: 96.5165%
Epoch: 17, Iteration: 40734210, Loss: 0.1013353013032304, Training Accuracy: 96.5405%
Epoch: 18, Iteration: 43130340, Loss: 0.1004610654623558, Training Accuracy: 96.5564%
Epoch: 19, Iteration: 45526470, Loss: 0.09963820843123275, Training Accuracy: 96.5775%
Epoch: 20, Iteration: 47922600, Loss: 0.09886026802295458, Training Accuracy: 96.599%
Epoch: 21, Iteration: 50318730, Loss: 0.09812199060777742, Training Accuracy: 96.6221%
Epoch: 22, Iteration: 52714860, Loss: 0.09741905226536286, Training Accuracy: 96.6462%
Epoch: 23, Iteration: 55110990, Loss: 0.09674785388807289, Training Accuracy: 96.6703%
Epoch: 24, Iteration: 57507120, Loss: 0.09610536837600932, Training Accuracy: 96.6934%
Epoch: 25, Iteration: 59903250, Loss: 0.09548902512491815, Training Accuracy: 96.7091%
Epoch: 26, Iteration: 62299380, Loss: 0.09489662161203849, Training Accuracy: 96.7282%
Epoch: 27, Iteration: 64695510, Loss: 0.09432625494395974, Training Accuracy: 96.7513%
Epoch: 28, Iteration: 67091640, Loss: 0.09377626829777061, Training Accuracy: 96.7634%
Epoch: 29, Iteration: 69487770, Loss: 0.09324520860599352, Training Accuracy: 96.7775%
Epoch: 30, Iteration: 71883900, Loss: 0.09273179282403561, Training Accuracy: 96.8118%
Epoch: 31, Iteration: 74280030, Loss: 0.09223488081629025, Training Accuracy: 96.8326%
Epoch: 32, Iteration: 76676160, Loss: 0.09175345339545447, Training Accuracy: 96.8475%
Epoch: 33, Iteration: 79072290, Loss: 0.09128659440972889, Training Accuracy: 96.8611%
Epoch: 34, Iteration: 81468420, Loss: 0.09083347603595135, Training Accuracy: 96.8723%
Epoch: 35, Iteration: 83864550, Loss: 0.09039334663103372, Training Accuracy: 96.8823%
Epoch: 36, Iteration: 86260680, Loss: 0.08996552063923434, Training Accuracy: 96.8934%
Epoch: 37, Iteration: 88656810, Loss: 0.08954937016187715, Training Accuracy: 96.9034%
Epoch: 38, Iteration: 91052940, Loss: 0.08914431787937978, Training Accuracy: 96.9187%
Epoch: 39, Iteration: 93449070, Loss: 0.08874983107900423, Training Accuracy: 96.9317%
Epoch: 40, Iteration: 95845200, Loss: 0.08836541659115252, Training Accuracy: 96.9441%
Epoch: 41, Iteration: 98241330, Loss: 0.08799061647554304, Training Accuracy: 96.9568%
Epoch: 42, Iteration: 100637460, Loss: 0.08762500432876986, Training Accuracy: 96.9704%
Epoch: 43, Iteration: 103033590, Loss: 0.08726818210886057, Training Accuracy: 96.9886%
Epoch: 44, Iteration: 105429720, Loss: 0.08691977739151835, Training Accuracy: 97.0061%
Epoch: 45, Iteration: 107825850, Loss: 0.08657944098811386, Training Accuracy: 97.0197%
Epoch: 46, Iteration: 110221980, Loss: 0.0862468448679255, Training Accuracy: 97.0318%
Epoch: 47, Iteration: 112618110, Loss: 0.08592168033714538, Training Accuracy: 97.0421%
Epoch: 48, Iteration: 115014240, Loss: 0.08560365643536154, Training Accuracy: 97.0544%
Epoch: 49, Iteration: 117410370, Loss: 0.08529249851697274, Training Accuracy: 97.0649%
Epoch: 50, Iteration: 119806500, Loss: 0.08498794699037862, Training Accuracy: 97.0741%
Epoch: 51, Iteration: 122202630, Loss: 0.08468975619240997, Training Accuracy: 97.0835%
Epoch: 52, Iteration: 124598760, Loss: 0.08439769337907024, Training Accuracy: 97.0924%
Epoch: 53, Iteration: 126994890, Loss: 0.08411153781679145, Training Accuracy: 97.0998%
Epoch: 54, Iteration: 129391020, Loss: 0.08383107996089607, Training Accuracy: 97.1078%
Epoch: 55, Iteration: 131787150, Loss: 0.08355612071008954, Training Accuracy: 97.1145%
Epoch: 56, Iteration: 134183280, Loss: 0.08328647072747837, Training Accuracy: 97.1226%
Epoch: 57, Iteration: 136579410, Loss: 0.08302194982015605, Training Accuracy: 97.1341%
Epoch: 58, Iteration: 138975540, Loss: 0.08276238637047256, Training Accuracy: 97.1421%
Epoch: 59, Iteration: 141371670, Loss: 0.08250761681322072, Training Accuracy: 97.1499%
Epoch: 60, Iteration: 143767800, Loss: 0.0822574851537019, Training Accuracy: 97.156%
Epoch: 61, Iteration: 146163930, Loss: 0.08201184252245652, Training Accuracy: 97.162%
Epoch: 62, Iteration: 148560060, Loss: 0.08177054676285327, Training Accuracy: 97.1672%
Epoch: 63, Iteration: 150956190, Loss: 0.08153346204844682, Training Accuracy: 97.1729%
Epoch: 64, Iteration: 153352320, Loss: 0.08130045852721943, Training Accuracy: 97.1794%
Epoch: 65, Iteration: 155748450, Loss: 0.08107141199028463, Training Accuracy: 97.1878%
Epoch: 66, Iteration: 158144580, Loss: 0.08084620356292274, Training Accuracy: 97.1946%
Epoch: 67, Iteration: 160540710, Loss: 0.08062471941605942, Training Accuracy: 97.2035%
Epoch: 68, Iteration: 162936840, Loss: 0.08040685049642908, Training Accuracy: 97.21%
Epoch: 69, Iteration: 165332970, Loss: 0.08019249227403831, Training Accuracy: 97.215%
Epoch: 70, Iteration: 167729100, Loss: 0.07998154450550379, Training Accuracy: 97.2206%
Epoch: 71, Iteration: 170125230, Loss: 0.07977391101207819, Training Accuracy: 97.2253%
Epoch: 72, Iteration: 172521360, Loss: 0.07956949947130244, Training Accuracy: 97.231%
Epoch: 73, Iteration: 174917490, Loss: 0.07936822122128528, Training Accuracy: 97.2383%
Epoch: 74, Iteration: 177313620, Loss: 0.07916999107668808, Training Accuracy: 97.2454%
Epoch: 75, Iteration: 179709750, Loss: 0.07897472715566045, Training Accuracy: 97.2532%
Epoch: 76, Iteration: 182105880, Loss: 0.07878235071691859, Training Accuracy: 97.2578%
Epoch: 77, Iteration: 184502010, Loss: 0.07859278600630666, Training Accuracy: 97.2652%
Epoch: 78, Iteration: 186898140, Loss: 0.07840596011223958, Training Accuracy: 97.2697%
Epoch: 79, Iteration: 189294270, Loss: 0.07822180282938007, Training Accuracy: 97.2735%
Epoch: 80, Iteration: 191690400, Loss: 0.07804024653008756, Training Accuracy: 97.278%
Epoch: 81, Iteration: 194086530, Loss: 0.07786122604308193, Training Accuracy: 97.2822%
Epoch: 82, Iteration: 196482660, Loss: 0.07768467853891113, Training Accuracy: 97.2865%
Epoch: 83, Iteration: 198878790, Loss: 0.07751054342174833, Training Accuracy: 97.2908%
Epoch: 84, Iteration: 201274920, Loss: 0.07733876222715891, Training Accuracy: 97.2959%
Epoch: 85, Iteration: 203671050, Loss: 0.07716927852545714, Training Accuracy: 97.3009%
Epoch: 86, Iteration: 206067180, Loss: 0.07700203783029086, Training Accuracy: 97.3062%
Epoch: 87, Iteration: 208463310, Loss: 0.07683698751214685, Training Accuracy: 97.3111%
Epoch: 88, Iteration: 210859440, Loss: 0.07667407671650707, Training Accuracy: 97.3167%
Epoch: 89, Iteration: 213255570, Loss: 0.07651325628630232, Training Accuracy: 97.3216%
Epoch: 90, Iteration: 215651700, Loss: 0.07635447868848297, Training Accuracy: 97.3252%
Epoch: 91, Iteration: 218047830, Loss: 0.07619769794439409, Training Accuracy: 97.3299%
Epoch: 92, Iteration: 220443960, Loss: 0.0760428695637964, Training Accuracy: 97.336%
Epoch: 93, Iteration: 222840090, Loss: 0.07588995048224573, Training Accuracy: 97.3416%
Epoch: 94, Iteration: 225236220, Loss: 0.07573889900168751, Training Accuracy: 97.3457%
Epoch: 95, Iteration: 227632350, Loss: 0.07558967473405349, Training Accuracy: 97.3516%
Epoch: 96, Iteration: 230028480, Loss: 0.07544223854769253, Training Accuracy: 97.3559%
Epoch: 97, Iteration: 232424610, Loss: 0.07529655251646827, Training Accuracy: 97.3594%
Epoch: 98, Iteration: 234820740, Loss: 0.07515257987137645, Training Accuracy: 97.3638%
Epoch: 99, Iteration: 237216870, Loss: 0.07501028495452802, Training Accuracy: 97.3691%
Epoch: 100, Iteration: 239613000, Loss: 0.07486963317537237, Training Accuracy: 97.3729%
training logistic regression elapsed time: 3.63976e+06 ms

Epoch: 1, Iteration: 2396130, Loss: 0.2167145946149003, Training Accuracy: 95.8163%
Epoch: 2, Iteration: 4792260, Loss: 0.1639683838307666, Training Accuracy: 96.0436%
Epoch: 3, Iteration: 7188390, Loss: 0.1432354416122814, Training Accuracy: 96.1155%
Epoch: 4, Iteration: 9584520, Loss: 0.1322134368407356, Training Accuracy: 96.1091%
Epoch: 5, Iteration: 11980650, Loss: 0.1253206385552874, Training Accuracy: 96.1466%
Epoch: 6, Iteration: 14376780, Loss: 0.120541346182671, Training Accuracy: 96.1871%
Epoch: 7, Iteration: 16772910, Loss: 0.1169811500599667, Training Accuracy: 96.2381%
Epoch: 8, Iteration: 19169040, Loss: 0.1141860239751093, Training Accuracy: 96.2923%
Epoch: 9, Iteration: 21565170, Loss: 0.1119023671159727, Training Accuracy: 96.3218%
Epoch: 10, Iteration: 23961300, Loss: 0.1099779873051615, Training Accuracy: 96.3585%
Epoch: 11, Iteration: 26357430, Loss: 0.1083162849143911, Training Accuracy: 96.3965%
Epoch: 12, Iteration: 28753560, Loss: 0.1068531161014457, Training Accuracy: 96.4244%
Epoch: 13, Iteration: 31149690, Loss: 0.1055442723617454, Training Accuracy: 96.4477%
Epoch: 14, Iteration: 33545820, Loss: 0.104358313958539, Training Accuracy: 96.4665%
Epoch: 15, Iteration: 35941950, Loss: 0.1032722727010839, Training Accuracy: 96.4874%
Epoch: 16, Iteration: 38338080, Loss: 0.1022689724096098, Training Accuracy: 96.5165%
Epoch: 17, Iteration: 40734210, Loss: 0.1013353013032304, Training Accuracy: 96.5405%
Epoch: 18, Iteration: 43130340, Loss: 0.1004610654623558, Training Accuracy: 96.5564%
Epoch: 19, Iteration: 45526470, Loss: 0.09963820843123275, Training Accuracy: 96.5775%
Epoch: 20, Iteration: 47922600, Loss: 0.09886026802295458, Training Accuracy: 96.599%
Epoch: 21, Iteration: 50318730, Loss: 0.09812199060777742, Training Accuracy: 96.6221%
Epoch: 22, Iteration: 52714860, Loss: 0.09741905226536286, Training Accuracy: 96.6462%
Epoch: 23, Iteration: 55110990, Loss: 0.09674785388807289, Training Accuracy: 96.6703%
Epoch: 24, Iteration: 57507120, Loss: 0.09610536837600932, Training Accuracy: 96.6934%
Epoch: 25, Iteration: 59903250, Loss: 0.09548902512491815, Training Accuracy: 96.7091%
Epoch: 26, Iteration: 62299380, Loss: 0.09489662161203849, Training Accuracy: 96.7282%
Epoch: 27, Iteration: 64695510, Loss: 0.09432625494395974, Training Accuracy: 96.7513%
Epoch: 28, Iteration: 67091640, Loss: 0.09377626829777061, Training Accuracy: 96.7634%
Epoch: 29, Iteration: 69487770, Loss: 0.09324520860599352, Training Accuracy: 96.7775%
Epoch: 30, Iteration: 71883900, Loss: 0.09273179282403561, Training Accuracy: 96.8118%
Epoch: 31, Iteration: 74280030, Loss: 0.09223488081629025, Training Accuracy: 96.8326%
Epoch: 32, Iteration: 76676160, Loss: 0.09175345339545447, Training Accuracy: 96.8475%
Epoch: 33, Iteration: 79072290, Loss: 0.09128659440972889, Training Accuracy: 96.8611%
Epoch: 34, Iteration: 81468420, Loss: 0.09083347603595135, Training Accuracy: 96.8723%
Epoch: 35, Iteration: 83864550, Loss: 0.09039334663103372, Training Accuracy: 96.8823%
Epoch: 36, Iteration: 86260680, Loss: 0.08996552063923434, Training Accuracy: 96.8934%
Epoch: 37, Iteration: 88656810, Loss: 0.08954937016187715, Training Accuracy: 96.9034%
Epoch: 38, Iteration: 91052940, Loss: 0.08914431787937978, Training Accuracy: 96.9187%
Epoch: 39, Iteration: 93449070, Loss: 0.08874983107900423, Training Accuracy: 96.9317%
Epoch: 40, Iteration: 95845200, Loss: 0.08836541659115252, Training Accuracy: 96.9441%
Epoch: 41, Iteration: 98241330, Loss: 0.08799061647554304, Training Accuracy: 96.9568%
Epoch: 42, Iteration: 100637460, Loss: 0.08762500432876986, Training Accuracy: 96.9704%
Epoch: 43, Iteration: 103033590, Loss: 0.08726818210886057, Training Accuracy: 96.9886%
Epoch: 44, Iteration: 105429720, Loss: 0.08691977739151835, Training Accuracy: 97.0061%
Epoch: 45, Iteration: 107825850, Loss: 0.08657944098811386, Training Accuracy: 97.0197%
Epoch: 46, Iteration: 110221980, Loss: 0.0862468448679255, Training Accuracy: 97.0318%
Epoch: 47, Iteration: 112618110, Loss: 0.08592168033714538, Training Accuracy: 97.0421%
Epoch: 48, Iteration: 115014240, Loss: 0.08560365643536154, Training Accuracy: 97.0544%
Epoch: 49, Iteration: 117410370, Loss: 0.08529249851697274, Training Accuracy: 97.0649%
Epoch: 50, Iteration: 119806500, Loss: 0.08498794699037862, Training Accuracy: 97.0741%
Epoch: 51, Iteration: 122202630, Loss: 0.08468975619240997, Training Accuracy: 97.0835%
Epoch: 52, Iteration: 124598760, Loss: 0.08439769337907024, Training Accuracy: 97.0924%
Epoch: 53, Iteration: 126994890, Loss: 0.08411153781679145, Training Accuracy: 97.0998%
Epoch: 54, Iteration: 129391020, Loss: 0.08383107996089607, Training Accuracy: 97.1078%
Epoch: 55, Iteration: 131787150, Loss: 0.08355612071008954, Training Accuracy: 97.1145%
Epoch: 56, Iteration: 134183280, Loss: 0.08328647072747837, Training Accuracy: 97.1226%
Epoch: 57, Iteration: 136579410, Loss: 0.08302194982015605, Training Accuracy: 97.1341%
Epoch: 58, Iteration: 138975540, Loss: 0.08276238637047256, Training Accuracy: 97.1421%
Epoch: 59, Iteration: 141371670, Loss: 0.08250761681322072, Training Accuracy: 97.1499%
Epoch: 60, Iteration: 143767800, Loss: 0.0822574851537019, Training Accuracy: 97.156%
Epoch: 61, Iteration: 146163930, Loss: 0.08201184252245652, Training Accuracy: 97.162%
Epoch: 62, Iteration: 148560060, Loss: 0.08177054676285327, Training Accuracy: 97.1672%
Epoch: 63, Iteration: 150956190, Loss: 0.08153346204844682, Training Accuracy: 97.1729%
Epoch: 64, Iteration: 153352320, Loss: 0.08130045852721943, Training Accuracy: 97.1794%
Epoch: 65, Iteration: 155748450, Loss: 0.08107141199028463, Training Accuracy: 97.1878%
Epoch: 66, Iteration: 158144580, Loss: 0.08084620356292274, Training Accuracy: 97.1946%
Epoch: 67, Iteration: 160540710, Loss: 0.08062471941605942, Training Accuracy: 97.2035%
Epoch: 68, Iteration: 162936840, Loss: 0.08040685049642908, Training Accuracy: 97.21%
Epoch: 69, Iteration: 165332970, Loss: 0.08019249227403831, Training Accuracy: 97.215%
Epoch: 70, Iteration: 167729100, Loss: 0.07998154450550379, Training Accuracy: 97.2206%
Epoch: 71, Iteration: 170125230, Loss: 0.07977391101207819, Training Accuracy: 97.2253%
Epoch: 72, Iteration: 172521360, Loss: 0.07956949947130244, Training Accuracy: 97.231%
Epoch: 73, Iteration: 174917490, Loss: 0.07936822122128528, Training Accuracy: 97.2383%
Epoch: 74, Iteration: 177313620, Loss: 0.07916999107668808, Training Accuracy: 97.2454%
Epoch: 75, Iteration: 179709750, Loss: 0.07897472715566045, Training Accuracy: 97.2532%
Epoch: 76, Iteration: 182105880, Loss: 0.07878235071691859, Training Accuracy: 97.2578%
Epoch: 77, Iteration: 184502010, Loss: 0.07859278600630666, Training Accuracy: 97.2652%
Epoch: 78, Iteration: 186898140, Loss: 0.07840596011223958, Training Accuracy: 97.2697%
Epoch: 79, Iteration: 189294270, Loss: 0.07822180282938007, Training Accuracy: 97.2735%
Epoch: 80, Iteration: 191690400, Loss: 0.07804024653008756, Training Accuracy: 97.278%
Epoch: 81, Iteration: 194086530, Loss: 0.07786122604308193, Training Accuracy: 97.2822%
Epoch: 82, Iteration: 196482660, Loss: 0.07768467853891113, Training Accuracy: 97.2865%
Epoch: 83, Iteration: 198878790, Loss: 0.07751054342174833, Training Accuracy: 97.2908%
Epoch: 84, Iteration: 201274920, Loss: 0.07733876222715891, Training Accuracy: 97.2959%
Epoch: 85, Iteration: 203671050, Loss: 0.07716927852545714, Training Accuracy: 97.3009%
Epoch: 86, Iteration: 206067180, Loss: 0.07700203783029086, Training Accuracy: 97.3062%
Epoch: 87, Iteration: 208463310, Loss: 0.07683698751214685, Training Accuracy: 97.3111%
Epoch: 88, Iteration: 210859440, Loss: 0.07667407671650707, Training Accuracy: 97.3167%
Epoch: 89, Iteration: 213255570, Loss: 0.07651325628630232, Training Accuracy: 97.3216%
Epoch: 90, Iteration: 215651700, Loss: 0.07635447868848297, Training Accuracy: 97.3252%
Epoch: 91, Iteration: 218047830, Loss: 0.07619769794439409, Training Accuracy: 97.3299%
Epoch: 92, Iteration: 220443960, Loss: 0.0760428695637964, Training Accuracy: 97.336%
Epoch: 93, Iteration: 222840090, Loss: 0.07588995048224573, Training Accuracy: 97.3416%
Epoch: 94, Iteration: 225236220, Loss: 0.07573889900168751, Training Accuracy: 97.3457%
Epoch: 95, Iteration: 227632350, Loss: 0.07558967473405349, Training Accuracy: 97.3516%
Epoch: 96, Iteration: 230028480, Loss: 0.07544223854769253, Training Accuracy: 97.3559%
Epoch: 97, Iteration: 232424610, Loss: 0.07529655251646827, Training Accuracy: 97.3594%
Epoch: 98, Iteration: 234820740, Loss: 0.07515257987137645, Training Accuracy: 97.3638%
Epoch: 99, Iteration: 237216870, Loss: 0.07501028495452802, Training Accuracy: 97.3691%
Epoch: 100, Iteration: 239613000, Loss: 0.07486963317537237, Training Accuracy: 97.3729%
training logistic regression elapsed time: 3.5817e+06 ms

Epoch: 1, Iteration: 2396130, Loss: 0.2167145946149003, Training Accuracy: 95.8163%
Epoch: 2, Iteration: 4792260, Loss: 0.1639683838307666, Training Accuracy: 96.0436%
Epoch: 3, Iteration: 7188390, Loss: 0.1432354416122814, Training Accuracy: 96.1155%
Epoch: 4, Iteration: 9584520, Loss: 0.1322134368407356, Training Accuracy: 96.1091%
Epoch: 5, Iteration: 11980650, Loss: 0.1253206385552874, Training Accuracy: 96.1466%
Epoch: 6, Iteration: 14376780, Loss: 0.120541346182671, Training Accuracy: 96.1871%
Epoch: 7, Iteration: 16772910, Loss: 0.1169811500599667, Training Accuracy: 96.2381%
Epoch: 8, Iteration: 19169040, Loss: 0.1141860239751093, Training Accuracy: 96.2923%
Epoch: 9, Iteration: 21565170, Loss: 0.1119023671159727, Training Accuracy: 96.3218%
Epoch: 10, Iteration: 23961300, Loss: 0.1099779873051615, Training Accuracy: 96.3585%
Epoch: 11, Iteration: 26357430, Loss: 0.1083162849143911, Training Accuracy: 96.3965%
Epoch: 12, Iteration: 28753560, Loss: 0.1068531161014457, Training Accuracy: 96.4244%
Epoch: 13, Iteration: 31149690, Loss: 0.1055442723617454, Training Accuracy: 96.4477%
Epoch: 14, Iteration: 33545820, Loss: 0.104358313958539, Training Accuracy: 96.4665%
Epoch: 15, Iteration: 35941950, Loss: 0.1032722727010839, Training Accuracy: 96.4874%
Epoch: 16, Iteration: 38338080, Loss: 0.1022689724096098, Training Accuracy: 96.5165%
Epoch: 17, Iteration: 40734210, Loss: 0.1013353013032304, Training Accuracy: 96.5405%
Epoch: 18, Iteration: 43130340, Loss: 0.1004610654623558, Training Accuracy: 96.5564%
Epoch: 19, Iteration: 45526470, Loss: 0.09963820843123275, Training Accuracy: 96.5775%
Epoch: 20, Iteration: 47922600, Loss: 0.09886026802295458, Training Accuracy: 96.599%
Epoch: 21, Iteration: 50318730, Loss: 0.09812199060777742, Training Accuracy: 96.6221%
Epoch: 22, Iteration: 52714860, Loss: 0.09741905226536286, Training Accuracy: 96.6462%
Epoch: 23, Iteration: 55110990, Loss: 0.09674785388807289, Training Accuracy: 96.6703%
Epoch: 24, Iteration: 57507120, Loss: 0.09610536837600932, Training Accuracy: 96.6934%
Epoch: 25, Iteration: 59903250, Loss: 0.09548902512491815, Training Accuracy: 96.7091%
Epoch: 26, Iteration: 62299380, Loss: 0.09489662161203849, Training Accuracy: 96.7282%
Epoch: 27, Iteration: 64695510, Loss: 0.09432625494395974, Training Accuracy: 96.7513%
Epoch: 28, Iteration: 67091640, Loss: 0.09377626829777061, Training Accuracy: 96.7634%
Epoch: 29, Iteration: 69487770, Loss: 0.09324520860599352, Training Accuracy: 96.7775%
Epoch: 30, Iteration: 71883900, Loss: 0.09273179282403561, Training Accuracy: 96.8118%
Epoch: 31, Iteration: 74280030, Loss: 0.09223488081629025, Training Accuracy: 96.8326%
Epoch: 32, Iteration: 76676160, Loss: 0.09175345339545447, Training Accuracy: 96.8475%
Epoch: 33, Iteration: 79072290, Loss: 0.09128659440972889, Training Accuracy: 96.8611%
Epoch: 34, Iteration: 81468420, Loss: 0.09083347603595135, Training Accuracy: 96.8723%
Epoch: 35, Iteration: 83864550, Loss: 0.09039334663103372, Training Accuracy: 96.8823%
Epoch: 36, Iteration: 86260680, Loss: 0.08996552063923434, Training Accuracy: 96.8934%
Epoch: 37, Iteration: 88656810, Loss: 0.08954937016187715, Training Accuracy: 96.9034%
Epoch: 38, Iteration: 91052940, Loss: 0.08914431787937978, Training Accuracy: 96.9187%
Epoch: 39, Iteration: 93449070, Loss: 0.08874983107900423, Training Accuracy: 96.9317%
Epoch: 40, Iteration: 95845200, Loss: 0.08836541659115252, Training Accuracy: 96.9441%
Epoch: 41, Iteration: 98241330, Loss: 0.08799061647554304, Training Accuracy: 96.9568%
Epoch: 42, Iteration: 100637460, Loss: 0.08762500432876986, Training Accuracy: 96.9704%
Epoch: 43, Iteration: 103033590, Loss: 0.08726818210886057, Training Accuracy: 96.9886%
Epoch: 44, Iteration: 105429720, Loss: 0.08691977739151835, Training Accuracy: 97.0061%
Epoch: 45, Iteration: 107825850, Loss: 0.08657944098811386, Training Accuracy: 97.0197%
Epoch: 46, Iteration: 110221980, Loss: 0.0862468448679255, Training Accuracy: 97.0318%
Epoch: 47, Iteration: 112618110, Loss: 0.08592168033714538, Training Accuracy: 97.0421%
Epoch: 48, Iteration: 115014240, Loss: 0.08560365643536154, Training Accuracy: 97.0544%
Epoch: 49, Iteration: 117410370, Loss: 0.08529249851697274, Training Accuracy: 97.0649%
Epoch: 50, Iteration: 119806500, Loss: 0.08498794699037862, Training Accuracy: 97.0741%
Epoch: 51, Iteration: 122202630, Loss: 0.08468975619240997, Training Accuracy: 97.0835%
Epoch: 52, Iteration: 124598760, Loss: 0.08439769337907024, Training Accuracy: 97.0924%
Epoch: 53, Iteration: 126994890, Loss: 0.08411153781679145, Training Accuracy: 97.0998%
Epoch: 54, Iteration: 129391020, Loss: 0.08383107996089607, Training Accuracy: 97.1078%
Epoch: 55, Iteration: 131787150, Loss: 0.08355612071008954, Training Accuracy: 97.1145%
Epoch: 56, Iteration: 134183280, Loss: 0.08328647072747837, Training Accuracy: 97.1226%
Epoch: 57, Iteration: 136579410, Loss: 0.08302194982015605, Training Accuracy: 97.1341%
Epoch: 58, Iteration: 138975540, Loss: 0.08276238637047256, Training Accuracy: 97.1421%
Epoch: 59, Iteration: 141371670, Loss: 0.08250761681322072, Training Accuracy: 97.1499%
Epoch: 60, Iteration: 143767800, Loss: 0.0822574851537019, Training Accuracy: 97.156%
Epoch: 61, Iteration: 146163930, Loss: 0.08201184252245652, Training Accuracy: 97.162%
Epoch: 62, Iteration: 148560060, Loss: 0.08177054676285327, Training Accuracy: 97.1672%
Epoch: 63, Iteration: 150956190, Loss: 0.08153346204844682, Training Accuracy: 97.1729%
Epoch: 64, Iteration: 153352320, Loss: 0.08130045852721943, Training Accuracy: 97.1794%
Epoch: 65, Iteration: 155748450, Loss: 0.08107141199028463, Training Accuracy: 97.1878%
Epoch: 66, Iteration: 158144580, Loss: 0.08084620356292274, Training Accuracy: 97.1946%
Epoch: 67, Iteration: 160540710, Loss: 0.08062471941605942, Training Accuracy: 97.2035%
Epoch: 68, Iteration: 162936840, Loss: 0.08040685049642908, Training Accuracy: 97.21%
Epoch: 69, Iteration: 165332970, Loss: 0.08019249227403831, Training Accuracy: 97.215%
Epoch: 70, Iteration: 167729100, Loss: 0.07998154450550379, Training Accuracy: 97.2206%
Epoch: 71, Iteration: 170125230, Loss: 0.07977391101207819, Training Accuracy: 97.2253%
Epoch: 72, Iteration: 172521360, Loss: 0.07956949947130244, Training Accuracy: 97.231%
Epoch: 73, Iteration: 174917490, Loss: 0.07936822122128528, Training Accuracy: 97.2383%
Epoch: 74, Iteration: 177313620, Loss: 0.07916999107668808, Training Accuracy: 97.2454%
Epoch: 75, Iteration: 179709750, Loss: 0.07897472715566045, Training Accuracy: 97.2532%
Epoch: 76, Iteration: 182105880, Loss: 0.07878235071691859, Training Accuracy: 97.2578%
Epoch: 77, Iteration: 184502010, Loss: 0.07859278600630666, Training Accuracy: 97.2652%
Epoch: 78, Iteration: 186898140, Loss: 0.07840596011223958, Training Accuracy: 97.2697%
Epoch: 79, Iteration: 189294270, Loss: 0.07822180282938007, Training Accuracy: 97.2735%
Epoch: 80, Iteration: 191690400, Loss: 0.07804024653008756, Training Accuracy: 97.278%
Epoch: 81, Iteration: 194086530, Loss: 0.07786122604308193, Training Accuracy: 97.2822%
Epoch: 82, Iteration: 196482660, Loss: 0.07768467853891113, Training Accuracy: 97.2865%
Epoch: 83, Iteration: 198878790, Loss: 0.07751054342174833, Training Accuracy: 97.2908%
Epoch: 84, Iteration: 201274920, Loss: 0.07733876222715891, Training Accuracy: 97.2959%
Epoch: 85, Iteration: 203671050, Loss: 0.07716927852545714, Training Accuracy: 97.3009%
Epoch: 86, Iteration: 206067180, Loss: 0.07700203783029086, Training Accuracy: 97.3062%
Epoch: 87, Iteration: 208463310, Loss: 0.07683698751214685, Training Accuracy: 97.3111%
Epoch: 88, Iteration: 210859440, Loss: 0.07667407671650707, Training Accuracy: 97.3167%
Epoch: 89, Iteration: 213255570, Loss: 0.07651325628630232, Training Accuracy: 97.3216%
Epoch: 90, Iteration: 215651700, Loss: 0.07635447868848297, Training Accuracy: 97.3252%
Epoch: 91, Iteration: 218047830, Loss: 0.07619769794439409, Training Accuracy: 97.3299%
Epoch: 92, Iteration: 220443960, Loss: 0.0760428695637964, Training Accuracy: 97.336%
Epoch: 93, Iteration: 222840090, Loss: 0.07588995048224573, Training Accuracy: 97.3416%
Epoch: 94, Iteration: 225236220, Loss: 0.07573889900168751, Training Accuracy: 97.3457%
Epoch: 95, Iteration: 227632350, Loss: 0.07558967473405349, Training Accuracy: 97.3516%
Epoch: 96, Iteration: 230028480, Loss: 0.07544223854769253, Training Accuracy: 97.3559%
Epoch: 97, Iteration: 232424610, Loss: 0.07529655251646827, Training Accuracy: 97.3594%
Epoch: 98, Iteration: 234820740, Loss: 0.07515257987137645, Training Accuracy: 97.3638%
Epoch: 99, Iteration: 237216870, Loss: 0.07501028495452802, Training Accuracy: 97.3691%
Epoch: 100, Iteration: 239613000, Loss: 0.07486963317537237, Training Accuracy: 97.3729%
training logistic regression elapsed time: 3.65527e+06 ms

Epoch: 1, Iteration: 2396130, Loss: 0.2167145946149003, Training Accuracy: 95.8163%
Epoch: 2, Iteration: 4792260, Loss: 0.1639683838307666, Training Accuracy: 96.0436%
Epoch: 3, Iteration: 7188390, Loss: 0.1432354416122814, Training Accuracy: 96.1155%
Epoch: 4, Iteration: 9584520, Loss: 0.1322134368407356, Training Accuracy: 96.1091%
Epoch: 5, Iteration: 11980650, Loss: 0.1253206385552874, Training Accuracy: 96.1466%
Epoch: 6, Iteration: 14376780, Loss: 0.120541346182671, Training Accuracy: 96.1871%
Epoch: 7, Iteration: 16772910, Loss: 0.1169811500599667, Training Accuracy: 96.2381%
Epoch: 8, Iteration: 19169040, Loss: 0.1141860239751093, Training Accuracy: 96.2923%
Epoch: 9, Iteration: 21565170, Loss: 0.1119023671159727, Training Accuracy: 96.3218%
Epoch: 10, Iteration: 23961300, Loss: 0.1099779873051615, Training Accuracy: 96.3585%
Epoch: 11, Iteration: 26357430, Loss: 0.1083162849143911, Training Accuracy: 96.3965%
Epoch: 12, Iteration: 28753560, Loss: 0.1068531161014457, Training Accuracy: 96.4244%
Epoch: 13, Iteration: 31149690, Loss: 0.1055442723617454, Training Accuracy: 96.4477%
Epoch: 14, Iteration: 33545820, Loss: 0.104358313958539, Training Accuracy: 96.4665%
Epoch: 15, Iteration: 35941950, Loss: 0.1032722727010839, Training Accuracy: 96.4874%
Epoch: 16, Iteration: 38338080, Loss: 0.1022689724096098, Training Accuracy: 96.5165%
Epoch: 17, Iteration: 40734210, Loss: 0.1013353013032304, Training Accuracy: 96.5405%
Epoch: 18, Iteration: 43130340, Loss: 0.1004610654623558, Training Accuracy: 96.5564%
Epoch: 19, Iteration: 45526470, Loss: 0.09963820843123275, Training Accuracy: 96.5775%
Epoch: 20, Iteration: 47922600, Loss: 0.09886026802295458, Training Accuracy: 96.599%
Epoch: 21, Iteration: 50318730, Loss: 0.09812199060777742, Training Accuracy: 96.6221%
Epoch: 22, Iteration: 52714860, Loss: 0.09741905226536286, Training Accuracy: 96.6462%
Epoch: 23, Iteration: 55110990, Loss: 0.09674785388807289, Training Accuracy: 96.6703%
Epoch: 24, Iteration: 57507120, Loss: 0.09610536837600932, Training Accuracy: 96.6934%
Epoch: 25, Iteration: 59903250, Loss: 0.09548902512491815, Training Accuracy: 96.7091%
Epoch: 26, Iteration: 62299380, Loss: 0.09489662161203849, Training Accuracy: 96.7282%
Epoch: 27, Iteration: 64695510, Loss: 0.09432625494395974, Training Accuracy: 96.7513%
Epoch: 28, Iteration: 67091640, Loss: 0.09377626829777061, Training Accuracy: 96.7634%
Epoch: 29, Iteration: 69487770, Loss: 0.09324520860599352, Training Accuracy: 96.7775%
Epoch: 30, Iteration: 71883900, Loss: 0.09273179282403561, Training Accuracy: 96.8118%
Epoch: 31, Iteration: 74280030, Loss: 0.09223488081629025, Training Accuracy: 96.8326%
Epoch: 32, Iteration: 76676160, Loss: 0.09175345339545447, Training Accuracy: 96.8475%
Epoch: 33, Iteration: 79072290, Loss: 0.09128659440972889, Training Accuracy: 96.8611%
Epoch: 34, Iteration: 81468420, Loss: 0.09083347603595135, Training Accuracy: 96.8723%
Epoch: 35, Iteration: 83864550, Loss: 0.09039334663103372, Training Accuracy: 96.8823%
Epoch: 36, Iteration: 86260680, Loss: 0.08996552063923434, Training Accuracy: 96.8934%
Epoch: 37, Iteration: 88656810, Loss: 0.08954937016187715, Training Accuracy: 96.9034%
Epoch: 38, Iteration: 91052940, Loss: 0.08914431787937978, Training Accuracy: 96.9187%
Epoch: 39, Iteration: 93449070, Loss: 0.08874983107900423, Training Accuracy: 96.9317%
Epoch: 40, Iteration: 95845200, Loss: 0.08836541659115252, Training Accuracy: 96.9441%
Epoch: 41, Iteration: 98241330, Loss: 0.08799061647554304, Training Accuracy: 96.9568%
Epoch: 42, Iteration: 100637460, Loss: 0.08762500432876986, Training Accuracy: 96.9704%
Epoch: 43, Iteration: 103033590, Loss: 0.08726818210886057, Training Accuracy: 96.9886%
Epoch: 44, Iteration: 105429720, Loss: 0.08691977739151835, Training Accuracy: 97.0061%
Epoch: 45, Iteration: 107825850, Loss: 0.08657944098811386, Training Accuracy: 97.0197%
Epoch: 46, Iteration: 110221980, Loss: 0.0862468448679255, Training Accuracy: 97.0318%
Epoch: 47, Iteration: 112618110, Loss: 0.08592168033714538, Training Accuracy: 97.0421%
Epoch: 48, Iteration: 115014240, Loss: 0.08560365643536154, Training Accuracy: 97.0544%
Epoch: 49, Iteration: 117410370, Loss: 0.08529249851697274, Training Accuracy: 97.0649%
Epoch: 50, Iteration: 119806500, Loss: 0.08498794699037862, Training Accuracy: 97.0741%
Epoch: 51, Iteration: 122202630, Loss: 0.08468975619240997, Training Accuracy: 97.0835%
Epoch: 52, Iteration: 124598760, Loss: 0.08439769337907024, Training Accuracy: 97.0924%
Epoch: 53, Iteration: 126994890, Loss: 0.08411153781679145, Training Accuracy: 97.0998%
Epoch: 54, Iteration: 129391020, Loss: 0.08383107996089607, Training Accuracy: 97.1078%
Epoch: 55, Iteration: 131787150, Loss: 0.08355612071008954, Training Accuracy: 97.1145%
Epoch: 56, Iteration: 134183280, Loss: 0.08328647072747837, Training Accuracy: 97.1226%
Epoch: 57, Iteration: 136579410, Loss: 0.08302194982015605, Training Accuracy: 97.1341%
Epoch: 58, Iteration: 138975540, Loss: 0.08276238637047256, Training Accuracy: 97.1421%
Epoch: 59, Iteration: 141371670, Loss: 0.08250761681322072, Training Accuracy: 97.1499%
Epoch: 60, Iteration: 143767800, Loss: 0.0822574851537019, Training Accuracy: 97.156%
Epoch: 61, Iteration: 146163930, Loss: 0.08201184252245652, Training Accuracy: 97.162%
Epoch: 62, Iteration: 148560060, Loss: 0.08177054676285327, Training Accuracy: 97.1672%
Epoch: 63, Iteration: 150956190, Loss: 0.08153346204844682, Training Accuracy: 97.1729%
Epoch: 64, Iteration: 153352320, Loss: 0.08130045852721943, Training Accuracy: 97.1794%
Epoch: 65, Iteration: 155748450, Loss: 0.08107141199028463, Training Accuracy: 97.1878%
Epoch: 66, Iteration: 158144580, Loss: 0.08084620356292274, Training Accuracy: 97.1946%
Epoch: 67, Iteration: 160540710, Loss: 0.08062471941605942, Training Accuracy: 97.2035%
Epoch: 68, Iteration: 162936840, Loss: 0.08040685049642908, Training Accuracy: 97.21%
Epoch: 69, Iteration: 165332970, Loss: 0.08019249227403831, Training Accuracy: 97.215%
Epoch: 70, Iteration: 167729100, Loss: 0.07998154450550379, Training Accuracy: 97.2206%
Epoch: 71, Iteration: 170125230, Loss: 0.07977391101207819, Training Accuracy: 97.2253%
Epoch: 72, Iteration: 172521360, Loss: 0.07956949947130244, Training Accuracy: 97.231%
Epoch: 73, Iteration: 174917490, Loss: 0.07936822122128528, Training Accuracy: 97.2383%
Epoch: 74, Iteration: 177313620, Loss: 0.07916999107668808, Training Accuracy: 97.2454%
Epoch: 75, Iteration: 179709750, Loss: 0.07897472715566045, Training Accuracy: 97.2532%
Epoch: 76, Iteration: 182105880, Loss: 0.07878235071691859, Training Accuracy: 97.2578%
Epoch: 77, Iteration: 184502010, Loss: 0.07859278600630666, Training Accuracy: 97.2652%
Epoch: 78, Iteration: 186898140, Loss: 0.07840596011223958, Training Accuracy: 97.2697%
Epoch: 79, Iteration: 189294270, Loss: 0.07822180282938007, Training Accuracy: 97.2735%
Epoch: 80, Iteration: 191690400, Loss: 0.07804024653008756, Training Accuracy: 97.278%
Epoch: 81, Iteration: 194086530, Loss: 0.07786122604308193, Training Accuracy: 97.2822%
Epoch: 82, Iteration: 196482660, Loss: 0.07768467853891113, Training Accuracy: 97.2865%
Epoch: 83, Iteration: 198878790, Loss: 0.07751054342174833, Training Accuracy: 97.2908%
Epoch: 84, Iteration: 201274920, Loss: 0.07733876222715891, Training Accuracy: 97.2959%
Epoch: 85, Iteration: 203671050, Loss: 0.07716927852545714, Training Accuracy: 97.3009%
Epoch: 86, Iteration: 206067180, Loss: 0.07700203783029086, Training Accuracy: 97.3062%
Epoch: 87, Iteration: 208463310, Loss: 0.07683698751214685, Training Accuracy: 97.3111%
Epoch: 88, Iteration: 210859440, Loss: 0.07667407671650707, Training Accuracy: 97.3167%
Epoch: 89, Iteration: 213255570, Loss: 0.07651325628630232, Training Accuracy: 97.3216%
Epoch: 90, Iteration: 215651700, Loss: 0.07635447868848297, Training Accuracy: 97.3252%
Epoch: 91, Iteration: 218047830, Loss: 0.07619769794439409, Training Accuracy: 97.3299%
Epoch: 92, Iteration: 220443960, Loss: 0.0760428695637964, Training Accuracy: 97.336%
Epoch: 93, Iteration: 222840090, Loss: 0.07588995048224573, Training Accuracy: 97.3416%
Epoch: 94, Iteration: 225236220, Loss: 0.07573889900168751, Training Accuracy: 97.3457%
Epoch: 95, Iteration: 227632350, Loss: 0.07558967473405349, Training Accuracy: 97.3516%
Epoch: 96, Iteration: 230028480, Loss: 0.07544223854769253, Training Accuracy: 97.3559%
Epoch: 97, Iteration: 232424610, Loss: 0.07529655251646827, Training Accuracy: 97.3594%
Epoch: 98, Iteration: 234820740, Loss: 0.07515257987137645, Training Accuracy: 97.3638%
Epoch: 99, Iteration: 237216870, Loss: 0.07501028495452802, Training Accuracy: 97.3691%
Epoch: 100, Iteration: 239613000, Loss: 0.07486963317537237, Training Accuracy: 97.3729%
training logistic regression elapsed time: 3.67337e+06 ms

Epoch: 1, Iteration: 2396130, Loss: 0.2167145946149003, Training Accuracy: 95.8163%
Epoch: 2, Iteration: 4792260, Loss: 0.1639683838307666, Training Accuracy: 96.0436%
Epoch: 3, Iteration: 7188390, Loss: 0.1432354416122814, Training Accuracy: 96.1155%
Epoch: 4, Iteration: 9584520, Loss: 0.1322134368407356, Training Accuracy: 96.1091%
Epoch: 5, Iteration: 11980650, Loss: 0.1253206385552874, Training Accuracy: 96.1466%
Epoch: 6, Iteration: 14376780, Loss: 0.120541346182671, Training Accuracy: 96.1871%
Epoch: 7, Iteration: 16772910, Loss: 0.1169811500599667, Training Accuracy: 96.2381%
Epoch: 8, Iteration: 19169040, Loss: 0.1141860239751093, Training Accuracy: 96.2923%
Epoch: 9, Iteration: 21565170, Loss: 0.1119023671159727, Training Accuracy: 96.3218%
Epoch: 10, Iteration: 23961300, Loss: 0.1099779873051615, Training Accuracy: 96.3585%
Epoch: 11, Iteration: 26357430, Loss: 0.1083162849143911, Training Accuracy: 96.3965%
Epoch: 12, Iteration: 28753560, Loss: 0.1068531161014457, Training Accuracy: 96.4244%
Epoch: 13, Iteration: 31149690, Loss: 0.1055442723617454, Training Accuracy: 96.4477%
Epoch: 14, Iteration: 33545820, Loss: 0.104358313958539, Training Accuracy: 96.4665%
Epoch: 15, Iteration: 35941950, Loss: 0.1032722727010839, Training Accuracy: 96.4874%
Epoch: 16, Iteration: 38338080, Loss: 0.1022689724096098, Training Accuracy: 96.5165%
Epoch: 17, Iteration: 40734210, Loss: 0.1013353013032304, Training Accuracy: 96.5405%
Epoch: 18, Iteration: 43130340, Loss: 0.1004610654623558, Training Accuracy: 96.5564%
Epoch: 19, Iteration: 45526470, Loss: 0.09963820843123275, Training Accuracy: 96.5775%
Epoch: 20, Iteration: 47922600, Loss: 0.09886026802295458, Training Accuracy: 96.599%
Epoch: 21, Iteration: 50318730, Loss: 0.09812199060777742, Training Accuracy: 96.6221%
Epoch: 22, Iteration: 52714860, Loss: 0.09741905226536286, Training Accuracy: 96.6462%
Epoch: 23, Iteration: 55110990, Loss: 0.09674785388807289, Training Accuracy: 96.6703%
Epoch: 24, Iteration: 57507120, Loss: 0.09610536837600932, Training Accuracy: 96.6934%
Epoch: 25, Iteration: 59903250, Loss: 0.09548902512491815, Training Accuracy: 96.7091%
Epoch: 26, Iteration: 62299380, Loss: 0.09489662161203849, Training Accuracy: 96.7282%
Epoch: 27, Iteration: 64695510, Loss: 0.09432625494395974, Training Accuracy: 96.7513%
Epoch: 28, Iteration: 67091640, Loss: 0.09377626829777061, Training Accuracy: 96.7634%
Epoch: 29, Iteration: 69487770, Loss: 0.09324520860599352, Training Accuracy: 96.7775%
Epoch: 30, Iteration: 71883900, Loss: 0.09273179282403561, Training Accuracy: 96.8118%
Epoch: 31, Iteration: 74280030, Loss: 0.09223488081629025, Training Accuracy: 96.8326%
Epoch: 32, Iteration: 76676160, Loss: 0.09175345339545447, Training Accuracy: 96.8475%
Epoch: 33, Iteration: 79072290, Loss: 0.09128659440972889, Training Accuracy: 96.8611%
Epoch: 34, Iteration: 81468420, Loss: 0.09083347603595135, Training Accuracy: 96.8723%
Epoch: 35, Iteration: 83864550, Loss: 0.09039334663103372, Training Accuracy: 96.8823%
Epoch: 36, Iteration: 86260680, Loss: 0.08996552063923434, Training Accuracy: 96.8934%
Epoch: 37, Iteration: 88656810, Loss: 0.08954937016187715, Training Accuracy: 96.9034%
Epoch: 38, Iteration: 91052940, Loss: 0.08914431787937978, Training Accuracy: 96.9187%
Epoch: 39, Iteration: 93449070, Loss: 0.08874983107900423, Training Accuracy: 96.9317%
Epoch: 40, Iteration: 95845200, Loss: 0.08836541659115252, Training Accuracy: 96.9441%
Epoch: 41, Iteration: 98241330, Loss: 0.08799061647554304, Training Accuracy: 96.9568%
Epoch: 42, Iteration: 100637460, Loss: 0.08762500432876986, Training Accuracy: 96.9704%
Epoch: 43, Iteration: 103033590, Loss: 0.08726818210886057, Training Accuracy: 96.9886%
Epoch: 44, Iteration: 105429720, Loss: 0.08691977739151835, Training Accuracy: 97.0061%
Epoch: 45, Iteration: 107825850, Loss: 0.08657944098811386, Training Accuracy: 97.0197%
Epoch: 46, Iteration: 110221980, Loss: 0.0862468448679255, Training Accuracy: 97.0318%
Epoch: 47, Iteration: 112618110, Loss: 0.08592168033714538, Training Accuracy: 97.0421%
Epoch: 48, Iteration: 115014240, Loss: 0.08560365643536154, Training Accuracy: 97.0544%
Epoch: 49, Iteration: 117410370, Loss: 0.08529249851697274, Training Accuracy: 97.0649%
Epoch: 50, Iteration: 119806500, Loss: 0.08498794699037862, Training Accuracy: 97.0741%
Epoch: 51, Iteration: 122202630, Loss: 0.08468975619240997, Training Accuracy: 97.0835%
Epoch: 52, Iteration: 124598760, Loss: 0.08439769337907024, Training Accuracy: 97.0924%
Epoch: 53, Iteration: 126994890, Loss: 0.08411153781679145, Training Accuracy: 97.0998%
Epoch: 54, Iteration: 129391020, Loss: 0.08383107996089607, Training Accuracy: 97.1078%
Epoch: 55, Iteration: 131787150, Loss: 0.08355612071008954, Training Accuracy: 97.1145%
Epoch: 56, Iteration: 134183280, Loss: 0.08328647072747837, Training Accuracy: 97.1226%
Epoch: 57, Iteration: 136579410, Loss: 0.08302194982015605, Training Accuracy: 97.1341%
Epoch: 58, Iteration: 138975540, Loss: 0.08276238637047256, Training Accuracy: 97.1421%
Epoch: 59, Iteration: 141371670, Loss: 0.08250761681322072, Training Accuracy: 97.1499%
Epoch: 60, Iteration: 143767800, Loss: 0.0822574851537019, Training Accuracy: 97.156%
Epoch: 61, Iteration: 146163930, Loss: 0.08201184252245652, Training Accuracy: 97.162%
Epoch: 62, Iteration: 148560060, Loss: 0.08177054676285327, Training Accuracy: 97.1672%
Epoch: 63, Iteration: 150956190, Loss: 0.08153346204844682, Training Accuracy: 97.1729%
Epoch: 64, Iteration: 153352320, Loss: 0.08130045852721943, Training Accuracy: 97.1794%
Epoch: 65, Iteration: 155748450, Loss: 0.08107141199028463, Training Accuracy: 97.1878%
Epoch: 66, Iteration: 158144580, Loss: 0.08084620356292274, Training Accuracy: 97.1946%
Epoch: 67, Iteration: 160540710, Loss: 0.08062471941605942, Training Accuracy: 97.2035%
Epoch: 68, Iteration: 162936840, Loss: 0.08040685049642908, Training Accuracy: 97.21%
Epoch: 69, Iteration: 165332970, Loss: 0.08019249227403831, Training Accuracy: 97.215%
Epoch: 70, Iteration: 167729100, Loss: 0.07998154450550379, Training Accuracy: 97.2206%
Epoch: 71, Iteration: 170125230, Loss: 0.07977391101207819, Training Accuracy: 97.2253%
Epoch: 72, Iteration: 172521360, Loss: 0.07956949947130244, Training Accuracy: 97.231%
Epoch: 73, Iteration: 174917490, Loss: 0.07936822122128528, Training Accuracy: 97.2383%
Epoch: 74, Iteration: 177313620, Loss: 0.07916999107668808, Training Accuracy: 97.2454%
Epoch: 75, Iteration: 179709750, Loss: 0.07897472715566045, Training Accuracy: 97.2532%
Epoch: 76, Iteration: 182105880, Loss: 0.07878235071691859, Training Accuracy: 97.2578%
Epoch: 77, Iteration: 184502010, Loss: 0.07859278600630666, Training Accuracy: 97.2652%
Epoch: 78, Iteration: 186898140, Loss: 0.07840596011223958, Training Accuracy: 97.2697%
Epoch: 79, Iteration: 189294270, Loss: 0.07822180282938007, Training Accuracy: 97.2735%
Epoch: 80, Iteration: 191690400, Loss: 0.07804024653008756, Training Accuracy: 97.278%
Epoch: 81, Iteration: 194086530, Loss: 0.07786122604308193, Training Accuracy: 97.2822%
Epoch: 82, Iteration: 196482660, Loss: 0.07768467853891113, Training Accuracy: 97.2865%
Epoch: 83, Iteration: 198878790, Loss: 0.07751054342174833, Training Accuracy: 97.2908%
Epoch: 84, Iteration: 201274920, Loss: 0.07733876222715891, Training Accuracy: 97.2959%
Epoch: 85, Iteration: 203671050, Loss: 0.07716927852545714, Training Accuracy: 97.3009%
Epoch: 86, Iteration: 206067180, Loss: 0.07700203783029086, Training Accuracy: 97.3062%
Epoch: 87, Iteration: 208463310, Loss: 0.07683698751214685, Training Accuracy: 97.3111%
Epoch: 88, Iteration: 210859440, Loss: 0.07667407671650707, Training Accuracy: 97.3167%
Epoch: 89, Iteration: 213255570, Loss: 0.07651325628630232, Training Accuracy: 97.3216%
Epoch: 90, Iteration: 215651700, Loss: 0.07635447868848297, Training Accuracy: 97.3252%
Epoch: 91, Iteration: 218047830, Loss: 0.07619769794439409, Training Accuracy: 97.3299%
Epoch: 92, Iteration: 220443960, Loss: 0.0760428695637964, Training Accuracy: 97.336%
Epoch: 93, Iteration: 222840090, Loss: 0.07588995048224573, Training Accuracy: 97.3416%
Epoch: 94, Iteration: 225236220, Loss: 0.07573889900168751, Training Accuracy: 97.3457%
Epoch: 95, Iteration: 227632350, Loss: 0.07558967473405349, Training Accuracy: 97.3516%
Epoch: 96, Iteration: 230028480, Loss: 0.07544223854769253, Training Accuracy: 97.3559%
Epoch: 97, Iteration: 232424610, Loss: 0.07529655251646827, Training Accuracy: 97.3594%
Epoch: 98, Iteration: 234820740, Loss: 0.07515257987137645, Training Accuracy: 97.3638%
Epoch: 99, Iteration: 237216870, Loss: 0.07501028495452802, Training Accuracy: 97.3691%
Epoch: 100, Iteration: 239613000, Loss: 0.07486963317537237, Training Accuracy: 97.3729%
training logistic regression elapsed time: 3.70139e+06 ms

training CA-logistic regression average elapsed time: 3.6503e+06 ms
training CA-logistic regression max elapsed time: 3.70139e+06 ms
training CA-logistic regression min elapsed time: 3.5817e+06 ms
