Using col balancing.
Matrix size is 19996 rows by 1355191 columns.
nnz = 9097916 density = 0.000335736
[Rank 0]: matrix size 19996 rows 28234 columns 2908438 nnz
[Rank 1]: matrix size 19996 rows 28234 columns 659877 nnz
[Rank 2]: matrix size 19996 rows 28234 columns 397019 nnz
[Rank 3]: matrix size 19996 rows 28234 columns 278602 nnz
[Rank 4]: matrix size 19996 rows 28234 columns 239232 nnz
[Rank 5]: matrix size 19996 rows 28234 columns 214834 nnz
[Rank 6]: matrix size 19996 rows 28234 columns 282107 nnz
[Rank 7]: matrix size 19996 rows 28233 columns 121176 nnz
[Rank 8]: matrix size 19996 rows 28233 columns 146514 nnz
[Rank 9]: matrix size 19996 rows 28233 columns 161166 nnz
[Rank 10]: matrix size 19996 rows 28233 columns 166463 nnz
[Rank 11]: matrix size 19996 rows 28233 columns 137427 nnz
[Rank 12]: matrix size 19996 rows 28233 columns 107076 nnz
[Rank 13]: matrix size 19996 rows 28233 columns 120880 nnz
[Rank 14]: matrix size 19996 rows 28233 columns 114686 nnz
[Rank 15]: matrix size 19996 rows 28233 columns 113205 nnz
[Rank 16]: matrix size 19996 rows 28233 columns 93775 nnz
[Rank 17]: matrix size 19996 rows 28233 columns 88247 nnz
[Rank 18]: matrix size 19996 rows 28233 columns 86301 nnz
[Rank 19]: matrix size 19996 rows 28233 columns 103481 nnz
[Rank 20]: matrix size 19996 rows 28233 columns 114922 nnz
[Rank 21]: matrix size 19996 rows 28233 columns 107006 nnz
[Rank 22]: matrix size 19996 rows 28233 columns 112138 nnz
[Rank 23]: matrix size 19996 rows 28233 columns 99446 nnz
[Rank 24]: matrix size 19996 rows 28233 columns 113872 nnz
[Rank 25]: matrix size 19996 rows 28233 columns 93430 nnz
[Rank 26]: matrix size 19996 rows 28233 columns 98813 nnz
[Rank 27]: matrix size 19996 rows 28233 columns 81040 nnz
[Rank 28]: matrix size 19996 rows 28233 columns 123071 nnz
[Rank 29]: matrix size 19996 rows 28233 columns 93891 nnz
[Rank 30]: matrix size 19996 rows 28233 columns 88179 nnz
[Rank 31]: matrix size 19996 rows 28233 columns 97132 nnz
[Rank 32]: matrix size 19996 rows 28233 columns 84885 nnz
[Rank 33]: matrix size 19996 rows 28233 columns 76317 nnz
[Rank 34]: matrix size 19996 rows 28233 columns 86879 nnz
[Rank 35]: matrix size 19996 rows 28233 columns 77089 nnz
[Rank 36]: matrix size 19996 rows 28233 columns 91227 nnz
[Rank 37]: matrix size 19996 rows 28233 columns 82297 nnz
[Rank 38]: matrix size 19996 rows 28233 columns 90643 nnz
[Rank 39]: matrix size 19996 rows 28233 columns 99407 nnz
[Rank 40]: matrix size 19996 rows 28233 columns 81909 nnz
[Rank 41]: matrix size 19996 rows 28233 columns 116595 nnz
[Rank 42]: matrix size 19996 rows 28233 columns 85370 nnz
[Rank 43]: matrix size 19996 rows 28233 columns 75175 nnz
[Rank 44]: matrix size 19996 rows 28233 columns 68950 nnz
[Rank 45]: matrix size 19996 rows 28233 columns 81527 nnz
[Rank 46]: matrix size 19996 rows 28233 columns 73139 nnz
s = 8
[Rank 47]: matrix size 19996 rows 28233 columns 63061 nnz
Total ncols: 1355191

Epoch: 1, Iteration: 19996, Loss: 0.6892426909423109, Training Accuracy: 72.6045%
Epoch: 2, Iteration: 39992, Loss: 0.6854232781996995, Training Accuracy: 73.4247%
Epoch: 3, Iteration: 59988, Loss: 0.6816810808042315, Training Accuracy: 74.1548%
Epoch: 4, Iteration: 79984, Loss: 0.6780101040060419, Training Accuracy: 74.93%
Epoch: 5, Iteration: 99980, Loss: 0.674405727825261, Training Accuracy: 75.4801%
Epoch: 6, Iteration: 119976, Loss: 0.6708643423013532, Training Accuracy: 76.1602%
Epoch: 7, Iteration: 139972, Loss: 0.667383077762068, Training Accuracy: 76.6503%
Epoch: 8, Iteration: 159968, Loss: 0.6639596058838515, Training Accuracy: 77.2054%
Epoch: 9, Iteration: 179964, Loss: 0.6605919933826178, Training Accuracy: 77.6155%
Epoch: 10, Iteration: 199960, Loss: 0.6572785947517443, Training Accuracy: 78.0556%
Epoch: 11, Iteration: 219956, Loss: 0.6540179739078043, Training Accuracy: 78.3357%
Epoch: 12, Iteration: 239952, Loss: 0.6508088471887928, Training Accuracy: 78.5907%
Epoch: 13, Iteration: 259948, Loss: 0.6476500420848386, Training Accuracy: 78.8958%
Epoch: 14, Iteration: 279944, Loss: 0.6445404675281035, Training Accuracy: 79.1208%
Epoch: 15, Iteration: 299940, Loss: 0.6414790926483912, Training Accuracy: 79.2609%
Epoch: 16, Iteration: 319936, Loss: 0.6384649317057591, Training Accuracy: 79.4559%
Epoch: 17, Iteration: 339932, Loss: 0.6354970335103332, Training Accuracy: 79.6659%
Epoch: 18, Iteration: 359928, Loss: 0.632574474084705, Training Accuracy: 79.906%
Epoch: 19, Iteration: 379924, Loss: 0.629696351654511, Training Accuracy: 80.096%
Epoch: 20, Iteration: 399920, Loss: 0.6268617832975367, Training Accuracy: 80.3011%
Epoch: 21, Iteration: 419916, Loss: 0.6240699027626717, Training Accuracy: 80.4861%
Epoch: 22, Iteration: 439912, Loss: 0.621319859103627, Training Accuracy: 80.5961%
Epoch: 23, Iteration: 459908, Loss: 0.6186108158707438, Training Accuracy: 80.7111%
Epoch: 24, Iteration: 479904, Loss: 0.6159419506764494, Training Accuracy: 80.8962%
Epoch: 25, Iteration: 499900, Loss: 0.6133124550029926, Training Accuracy: 81.0812%
Epoch: 26, Iteration: 519896, Loss: 0.6107215341595825, Training Accuracy: 81.1962%
Epoch: 27, Iteration: 539892, Loss: 0.6081684073243454, Training Accuracy: 81.3263%
Epoch: 28, Iteration: 559888, Loss: 0.6056523076267062, Training Accuracy: 81.5063%
Epoch: 29, Iteration: 579884, Loss: 0.6031724822404969, Training Accuracy: 81.6263%
Epoch: 30, Iteration: 599880, Loss: 0.6007281924685334, Training Accuracy: 81.7463%
Epoch: 31, Iteration: 619876, Loss: 0.5983187138067719, Training Accuracy: 81.8314%
Epoch: 32, Iteration: 639872, Loss: 0.5959433359813133, Training Accuracy: 81.9364%
Epoch: 33, Iteration: 659868, Loss: 0.5936013629551183, Training Accuracy: 82.0114%
Epoch: 34, Iteration: 679864, Loss: 0.5912921129036438, Training Accuracy: 82.1014%
Epoch: 35, Iteration: 699860, Loss: 0.5890149181601985, Training Accuracy: 82.1814%
Epoch: 36, Iteration: 719856, Loss: 0.5867691251328105, Training Accuracy: 82.2464%
Epoch: 37, Iteration: 739852, Loss: 0.5845540941949297, Training Accuracy: 82.3315%
Epoch: 38, Iteration: 759848, Loss: 0.5823691995526006, Training Accuracy: 82.4065%
Epoch: 39, Iteration: 779844, Loss: 0.5802138290908248, Training Accuracy: 82.4215%
Epoch: 40, Iteration: 799840, Loss: 0.5780873842017794, Training Accuracy: 82.5165%
Epoch: 41, Iteration: 819836, Loss: 0.5759892795974566, Training Accuracy: 82.5865%
Epoch: 42, Iteration: 839832, Loss: 0.5739189431091276, Training Accuracy: 82.6365%
Epoch: 43, Iteration: 859828, Loss: 0.5718758154758035, Training Accuracy: 82.7015%
Epoch: 44, Iteration: 879824, Loss: 0.5698593501237279, Training Accuracy: 82.7716%
Epoch: 45, Iteration: 899820, Loss: 0.5678690129386795, Training Accuracy: 82.8566%
Epoch: 46, Iteration: 919816, Loss: 0.5659042820327039, Training Accuracy: 82.9166%
Epoch: 47, Iteration: 939812, Loss: 0.5639646475066901, Training Accuracy: 82.9616%
Epoch: 48, Iteration: 959808, Loss: 0.5620496112100555, Training Accuracy: 83.0216%
Epoch: 49, Iteration: 979804, Loss: 0.5601586864986515, Training Accuracy: 83.0866%
Epoch: 50, Iteration: 999800, Loss: 0.558291397991825, Training Accuracy: 83.1366%
Epoch: 51, Iteration: 1019796, Loss: 0.5564472813295112, Training Accuracy: 83.1916%
Epoch: 52, Iteration: 1039792, Loss: 0.5546258829300497, Training Accuracy: 83.2416%
Epoch: 53, Iteration: 1059788, Loss: 0.5528267597493779, Training Accuracy: 83.2917%
Epoch: 54, Iteration: 1079784, Loss: 0.5510494790421001, Training Accuracy: 83.3617%
Epoch: 55, Iteration: 1099780, Loss: 0.5492936181249374, Training Accuracy: 83.4067%
Epoch: 56, Iteration: 1119776, Loss: 0.5475587641429079, Training Accuracy: 83.4617%
Epoch: 57, Iteration: 1139772, Loss: 0.5458445138385843, Training Accuracy: 83.4867%
Epoch: 58, Iteration: 1159768, Loss: 0.54415047332469, Training Accuracy: 83.5217%
Epoch: 59, Iteration: 1179764, Loss: 0.5424762578602806, Training Accuracy: 83.5967%
Epoch: 60, Iteration: 1199760, Loss: 0.5408214916306588, Training Accuracy: 83.6167%
Epoch: 61, Iteration: 1219756, Loss: 0.5391858075312239, Training Accuracy: 83.6617%
Epoch: 62, Iteration: 1239752, Loss: 0.5375688469553154, Training Accuracy: 83.6917%
Epoch: 63, Iteration: 1259748, Loss: 0.5359702595861907, Training Accuracy: 83.7267%
Epoch: 64, Iteration: 1279744, Loss: 0.534389703193168, Training Accuracy: 83.7668%
Epoch: 65, Iteration: 1299740, Loss: 0.532826843431991, Training Accuracy: 83.7968%
Epoch: 66, Iteration: 1319736, Loss: 0.5312813536494522, Training Accuracy: 83.8518%
Epoch: 67, Iteration: 1339732, Loss: 0.5297529146922589, Training Accuracy: 83.8718%
Epoch: 68, Iteration: 1359728, Loss: 0.5282412147201686, Training Accuracy: 83.9218%
Epoch: 69, Iteration: 1379724, Loss: 0.5267459490233579, Training Accuracy: 83.9268%
Epoch: 70, Iteration: 1399720, Loss: 0.5252668198439936, Training Accuracy: 83.9468%
Epoch: 71, Iteration: 1419716, Loss: 0.5238035362020107, Training Accuracy: 83.9668%
Epoch: 72, Iteration: 1439712, Loss: 0.5223558137249971, Training Accuracy: 83.9968%
Epoch: 73, Iteration: 1459708, Loss: 0.5209233744821844, Training Accuracy: 84.0018%
Epoch: 74, Iteration: 1479704, Loss: 0.5195059468224702, Training Accuracy: 84.0568%
Epoch: 75, Iteration: 1499700, Loss: 0.5181032652164157, Training Accuracy: 84.1068%
Epoch: 76, Iteration: 1519696, Loss: 0.5167150701021495, Training Accuracy: 84.1618%
Epoch: 77, Iteration: 1539692, Loss: 0.5153411077351338, Training Accuracy: 84.1918%
Epoch: 78, Iteration: 1559688, Loss: 0.513981130041694, Training Accuracy: 84.2068%
Epoch: 79, Iteration: 1579684, Loss: 0.512634894476267, Training Accuracy: 84.2068%
Epoch: 80, Iteration: 1599680, Loss: 0.5113021638822873, Training Accuracy: 84.2368%
Epoch: 81, Iteration: 1619676, Loss: 0.5099827063566269, Training Accuracy: 84.2669%
Epoch: 82, Iteration: 1639672, Loss: 0.50867629511754, Training Accuracy: 84.2919%
Epoch: 83, Iteration: 1659668, Loss: 0.5073827083760064, Training Accuracy: 84.3369%
Epoch: 84, Iteration: 1679664, Loss: 0.5061017292104327, Training Accuracy: 84.3619%
Epoch: 85, Iteration: 1699660, Loss: 0.5048331454446022, Training Accuracy: 84.3969%
Epoch: 86, Iteration: 1719656, Loss: 0.5035767495288331, Training Accuracy: 84.4569%
Epoch: 87, Iteration: 1739652, Loss: 0.5023323384242331, Training Accuracy: 84.5169%
Epoch: 88, Iteration: 1759648, Loss: 0.5010997134900187, Training Accuracy: 84.5419%
Epoch: 89, Iteration: 1779644, Loss: 0.4998786803737898, Training Accuracy: 84.5769%
Epoch: 90, Iteration: 1799640, Loss: 0.4986690489047015, Training Accuracy: 84.6019%
Epoch: 91, Iteration: 1819636, Loss: 0.4974706329894746, Training Accuracy: 84.6169%
Epoch: 92, Iteration: 1839632, Loss: 0.4962832505111441, Training Accuracy: 84.6569%
Epoch: 93, Iteration: 1859628, Loss: 0.4951067232305097, Training Accuracy: 84.7169%
Epoch: 94, Iteration: 1879624, Loss: 0.4939408766901917, Training Accuracy: 84.7319%
Epoch: 95, Iteration: 1899620, Loss: 0.492785540121249, Training Accuracy: 84.757%
Epoch: 96, Iteration: 1919616, Loss: 0.4916405463522655, Training Accuracy: 84.817%
Epoch: 97, Iteration: 1939612, Loss: 0.4905057317208755, Training Accuracy: 84.827%
Epoch: 98, Iteration: 1959608, Loss: 0.4893809359876292, Training Accuracy: 84.877%
Epoch: 99, Iteration: 1979604, Loss: 0.4882660022521648, Training Accuracy: 84.907%
Epoch: 100, Iteration: 1999600, Loss: 0.4871607768716011, Training Accuracy: 84.932%
training logistic regression elapsed time: 93043 ms

Epoch: 1, Iteration: 19996, Loss: 0.6892426909423108, Training Accuracy: 72.6045%
Epoch: 2, Iteration: 39992, Loss: 0.6854232781996995, Training Accuracy: 73.4247%
Epoch: 3, Iteration: 59988, Loss: 0.6816810808042315, Training Accuracy: 74.1548%
Epoch: 4, Iteration: 79984, Loss: 0.678010104006042, Training Accuracy: 74.93%
Epoch: 5, Iteration: 99980, Loss: 0.6744057278252611, Training Accuracy: 75.4801%
Epoch: 6, Iteration: 119976, Loss: 0.6708643423013532, Training Accuracy: 76.1602%
Epoch: 7, Iteration: 139972, Loss: 0.667383077762068, Training Accuracy: 76.6503%
Epoch: 8, Iteration: 159968, Loss: 0.6639596058838515, Training Accuracy: 77.2054%
Epoch: 9, Iteration: 179964, Loss: 0.6605919933826178, Training Accuracy: 77.6155%
Epoch: 10, Iteration: 199960, Loss: 0.6572785947517443, Training Accuracy: 78.0556%
Epoch: 11, Iteration: 219956, Loss: 0.6540179739078041, Training Accuracy: 78.3357%
Epoch: 12, Iteration: 239952, Loss: 0.6508088471887928, Training Accuracy: 78.5907%
Epoch: 13, Iteration: 259948, Loss: 0.6476500420848386, Training Accuracy: 78.8958%
Epoch: 14, Iteration: 279944, Loss: 0.6445404675281035, Training Accuracy: 79.1208%
Epoch: 15, Iteration: 299940, Loss: 0.6414790926483912, Training Accuracy: 79.2609%
Epoch: 16, Iteration: 319936, Loss: 0.6384649317057591, Training Accuracy: 79.4559%
Epoch: 17, Iteration: 339932, Loss: 0.6354970335103332, Training Accuracy: 79.6659%
Epoch: 18, Iteration: 359928, Loss: 0.632574474084705, Training Accuracy: 79.906%
Epoch: 19, Iteration: 379924, Loss: 0.6296963516545111, Training Accuracy: 80.096%
Epoch: 20, Iteration: 399920, Loss: 0.6268617832975368, Training Accuracy: 80.3011%
Epoch: 21, Iteration: 419916, Loss: 0.6240699027626716, Training Accuracy: 80.4861%
Epoch: 22, Iteration: 439912, Loss: 0.621319859103627, Training Accuracy: 80.5961%
Epoch: 23, Iteration: 459908, Loss: 0.6186108158707438, Training Accuracy: 80.7111%
Epoch: 24, Iteration: 479904, Loss: 0.6159419506764494, Training Accuracy: 80.8962%
Epoch: 25, Iteration: 499900, Loss: 0.6133124550029925, Training Accuracy: 81.0812%
Epoch: 26, Iteration: 519896, Loss: 0.6107215341595824, Training Accuracy: 81.1962%
Epoch: 27, Iteration: 539892, Loss: 0.6081684073243453, Training Accuracy: 81.3263%
Epoch: 28, Iteration: 559888, Loss: 0.6056523076267062, Training Accuracy: 81.5063%
Epoch: 29, Iteration: 579884, Loss: 0.6031724822404969, Training Accuracy: 81.6263%
Epoch: 30, Iteration: 599880, Loss: 0.6007281924685334, Training Accuracy: 81.7463%
Epoch: 31, Iteration: 619876, Loss: 0.5983187138067719, Training Accuracy: 81.8314%
Epoch: 32, Iteration: 639872, Loss: 0.5959433359813134, Training Accuracy: 81.9364%
Epoch: 33, Iteration: 659868, Loss: 0.5936013629551183, Training Accuracy: 82.0114%
Epoch: 34, Iteration: 679864, Loss: 0.5912921129036439, Training Accuracy: 82.1014%
Epoch: 35, Iteration: 699860, Loss: 0.5890149181601985, Training Accuracy: 82.1814%
Epoch: 36, Iteration: 719856, Loss: 0.5867691251328105, Training Accuracy: 82.2464%
Epoch: 37, Iteration: 739852, Loss: 0.5845540941949295, Training Accuracy: 82.3315%
Epoch: 38, Iteration: 759848, Loss: 0.5823691995526007, Training Accuracy: 82.4065%
Epoch: 39, Iteration: 779844, Loss: 0.5802138290908248, Training Accuracy: 82.4215%
Epoch: 40, Iteration: 799840, Loss: 0.5780873842017795, Training Accuracy: 82.5165%
Epoch: 41, Iteration: 819836, Loss: 0.5759892795974566, Training Accuracy: 82.5865%
Epoch: 42, Iteration: 839832, Loss: 0.5739189431091276, Training Accuracy: 82.6365%
Epoch: 43, Iteration: 859828, Loss: 0.5718758154758035, Training Accuracy: 82.7015%
Epoch: 44, Iteration: 879824, Loss: 0.5698593501237279, Training Accuracy: 82.7716%
Epoch: 45, Iteration: 899820, Loss: 0.5678690129386796, Training Accuracy: 82.8566%
Epoch: 46, Iteration: 919816, Loss: 0.5659042820327039, Training Accuracy: 82.9166%
Epoch: 47, Iteration: 939812, Loss: 0.5639646475066901, Training Accuracy: 82.9616%
Epoch: 48, Iteration: 959808, Loss: 0.5620496112100555, Training Accuracy: 83.0216%
Epoch: 49, Iteration: 979804, Loss: 0.5601586864986514, Training Accuracy: 83.0866%
Epoch: 50, Iteration: 999800, Loss: 0.5582913979918249, Training Accuracy: 83.1366%
Epoch: 51, Iteration: 1019796, Loss: 0.5564472813295113, Training Accuracy: 83.1916%
Epoch: 52, Iteration: 1039792, Loss: 0.5546258829300497, Training Accuracy: 83.2416%
Epoch: 53, Iteration: 1059788, Loss: 0.5528267597493779, Training Accuracy: 83.2917%
Epoch: 54, Iteration: 1079784, Loss: 0.5510494790421001, Training Accuracy: 83.3617%
Epoch: 55, Iteration: 1099780, Loss: 0.5492936181249374, Training Accuracy: 83.4067%
Epoch: 56, Iteration: 1119776, Loss: 0.5475587641429079, Training Accuracy: 83.4617%
Epoch: 57, Iteration: 1139772, Loss: 0.5458445138385843, Training Accuracy: 83.4867%
Epoch: 58, Iteration: 1159768, Loss: 0.5441504733246899, Training Accuracy: 83.5217%
Epoch: 59, Iteration: 1179764, Loss: 0.5424762578602806, Training Accuracy: 83.5967%
Epoch: 60, Iteration: 1199760, Loss: 0.5408214916306588, Training Accuracy: 83.6167%
Epoch: 61, Iteration: 1219756, Loss: 0.5391858075312239, Training Accuracy: 83.6617%
Epoch: 62, Iteration: 1239752, Loss: 0.5375688469553155, Training Accuracy: 83.6917%
Epoch: 63, Iteration: 1259748, Loss: 0.5359702595861906, Training Accuracy: 83.7267%
Epoch: 64, Iteration: 1279744, Loss: 0.5343897031931679, Training Accuracy: 83.7668%
Epoch: 65, Iteration: 1299740, Loss: 0.532826843431991, Training Accuracy: 83.7968%
Epoch: 66, Iteration: 1319736, Loss: 0.5312813536494522, Training Accuracy: 83.8518%
Epoch: 67, Iteration: 1339732, Loss: 0.529752914692259, Training Accuracy: 83.8718%
Epoch: 68, Iteration: 1359728, Loss: 0.5282412147201685, Training Accuracy: 83.9218%
Epoch: 69, Iteration: 1379724, Loss: 0.5267459490233579, Training Accuracy: 83.9268%
Epoch: 70, Iteration: 1399720, Loss: 0.5252668198439934, Training Accuracy: 83.9468%
Epoch: 71, Iteration: 1419716, Loss: 0.5238035362020107, Training Accuracy: 83.9668%
Epoch: 72, Iteration: 1439712, Loss: 0.5223558137249971, Training Accuracy: 83.9968%
Epoch: 73, Iteration: 1459708, Loss: 0.5209233744821844, Training Accuracy: 84.0018%
Epoch: 74, Iteration: 1479704, Loss: 0.5195059468224703, Training Accuracy: 84.0568%
Epoch: 75, Iteration: 1499700, Loss: 0.5181032652164157, Training Accuracy: 84.1068%
Epoch: 76, Iteration: 1519696, Loss: 0.5167150701021492, Training Accuracy: 84.1618%
Epoch: 77, Iteration: 1539692, Loss: 0.5153411077351338, Training Accuracy: 84.1918%
Epoch: 78, Iteration: 1559688, Loss: 0.513981130041694, Training Accuracy: 84.2068%
Epoch: 79, Iteration: 1579684, Loss: 0.5126348944762669, Training Accuracy: 84.2068%
Epoch: 80, Iteration: 1599680, Loss: 0.5113021638822872, Training Accuracy: 84.2368%
Epoch: 81, Iteration: 1619676, Loss: 0.5099827063566269, Training Accuracy: 84.2669%
Epoch: 82, Iteration: 1639672, Loss: 0.50867629511754, Training Accuracy: 84.2919%
Epoch: 83, Iteration: 1659668, Loss: 0.5073827083760064, Training Accuracy: 84.3369%
Epoch: 84, Iteration: 1679664, Loss: 0.5061017292104327, Training Accuracy: 84.3619%
Epoch: 85, Iteration: 1699660, Loss: 0.5048331454446023, Training Accuracy: 84.3969%
Epoch: 86, Iteration: 1719656, Loss: 0.5035767495288332, Training Accuracy: 84.4569%
Epoch: 87, Iteration: 1739652, Loss: 0.5023323384242329, Training Accuracy: 84.5169%
Epoch: 88, Iteration: 1759648, Loss: 0.5010997134900187, Training Accuracy: 84.5419%
Epoch: 89, Iteration: 1779644, Loss: 0.4998786803737897, Training Accuracy: 84.5769%
Epoch: 90, Iteration: 1799640, Loss: 0.4986690489047017, Training Accuracy: 84.6019%
Epoch: 91, Iteration: 1819636, Loss: 0.4974706329894745, Training Accuracy: 84.6169%
Epoch: 92, Iteration: 1839632, Loss: 0.4962832505111441, Training Accuracy: 84.6569%
Epoch: 93, Iteration: 1859628, Loss: 0.4951067232305096, Training Accuracy: 84.7169%
Epoch: 94, Iteration: 1879624, Loss: 0.4939408766901916, Training Accuracy: 84.7319%
Epoch: 95, Iteration: 1899620, Loss: 0.4927855401212489, Training Accuracy: 84.757%
Epoch: 96, Iteration: 1919616, Loss: 0.4916405463522654, Training Accuracy: 84.817%
Epoch: 97, Iteration: 1939612, Loss: 0.4905057317208754, Training Accuracy: 84.827%
Epoch: 98, Iteration: 1959608, Loss: 0.4893809359876292, Training Accuracy: 84.877%
Epoch: 99, Iteration: 1979604, Loss: 0.4882660022521648, Training Accuracy: 84.907%
Epoch: 100, Iteration: 1999600, Loss: 0.4871607768716012, Training Accuracy: 84.932%
training logistic regression elapsed time: 92567.2 ms

Epoch: 1, Iteration: 19996, Loss: 0.6892426909423108, Training Accuracy: 72.6045%
Epoch: 2, Iteration: 39992, Loss: 0.6854232781996995, Training Accuracy: 73.4247%
Epoch: 3, Iteration: 59988, Loss: 0.6816810808042315, Training Accuracy: 74.1548%
Epoch: 4, Iteration: 79984, Loss: 0.678010104006042, Training Accuracy: 74.93%
Epoch: 5, Iteration: 99980, Loss: 0.6744057278252611, Training Accuracy: 75.4801%
Epoch: 6, Iteration: 119976, Loss: 0.6708643423013532, Training Accuracy: 76.1602%
Epoch: 7, Iteration: 139972, Loss: 0.667383077762068, Training Accuracy: 76.6503%
Epoch: 8, Iteration: 159968, Loss: 0.6639596058838515, Training Accuracy: 77.2054%
Epoch: 9, Iteration: 179964, Loss: 0.6605919933826178, Training Accuracy: 77.6155%
Epoch: 10, Iteration: 199960, Loss: 0.6572785947517443, Training Accuracy: 78.0556%
Epoch: 11, Iteration: 219956, Loss: 0.6540179739078041, Training Accuracy: 78.3357%
Epoch: 12, Iteration: 239952, Loss: 0.6508088471887928, Training Accuracy: 78.5907%
Epoch: 13, Iteration: 259948, Loss: 0.6476500420848386, Training Accuracy: 78.8958%
Epoch: 14, Iteration: 279944, Loss: 0.6445404675281035, Training Accuracy: 79.1208%
Epoch: 15, Iteration: 299940, Loss: 0.6414790926483912, Training Accuracy: 79.2609%
Epoch: 16, Iteration: 319936, Loss: 0.6384649317057591, Training Accuracy: 79.4559%
Epoch: 17, Iteration: 339932, Loss: 0.6354970335103332, Training Accuracy: 79.6659%
Epoch: 18, Iteration: 359928, Loss: 0.632574474084705, Training Accuracy: 79.906%
Epoch: 19, Iteration: 379924, Loss: 0.6296963516545111, Training Accuracy: 80.096%
Epoch: 20, Iteration: 399920, Loss: 0.6268617832975368, Training Accuracy: 80.3011%
Epoch: 21, Iteration: 419916, Loss: 0.6240699027626716, Training Accuracy: 80.4861%
Epoch: 22, Iteration: 439912, Loss: 0.621319859103627, Training Accuracy: 80.5961%
Epoch: 23, Iteration: 459908, Loss: 0.6186108158707438, Training Accuracy: 80.7111%
Epoch: 24, Iteration: 479904, Loss: 0.6159419506764494, Training Accuracy: 80.8962%
Epoch: 25, Iteration: 499900, Loss: 0.6133124550029925, Training Accuracy: 81.0812%
Epoch: 26, Iteration: 519896, Loss: 0.6107215341595824, Training Accuracy: 81.1962%
Epoch: 27, Iteration: 539892, Loss: 0.6081684073243453, Training Accuracy: 81.3263%
Epoch: 28, Iteration: 559888, Loss: 0.6056523076267062, Training Accuracy: 81.5063%
Epoch: 29, Iteration: 579884, Loss: 0.6031724822404969, Training Accuracy: 81.6263%
Epoch: 30, Iteration: 599880, Loss: 0.6007281924685334, Training Accuracy: 81.7463%
Epoch: 31, Iteration: 619876, Loss: 0.5983187138067719, Training Accuracy: 81.8314%
Epoch: 32, Iteration: 639872, Loss: 0.5959433359813134, Training Accuracy: 81.9364%
Epoch: 33, Iteration: 659868, Loss: 0.5936013629551183, Training Accuracy: 82.0114%
Epoch: 34, Iteration: 679864, Loss: 0.5912921129036439, Training Accuracy: 82.1014%
Epoch: 35, Iteration: 699860, Loss: 0.5890149181601985, Training Accuracy: 82.1814%
Epoch: 36, Iteration: 719856, Loss: 0.5867691251328105, Training Accuracy: 82.2464%
Epoch: 37, Iteration: 739852, Loss: 0.5845540941949295, Training Accuracy: 82.3315%
Epoch: 38, Iteration: 759848, Loss: 0.5823691995526007, Training Accuracy: 82.4065%
Epoch: 39, Iteration: 779844, Loss: 0.5802138290908248, Training Accuracy: 82.4215%
Epoch: 40, Iteration: 799840, Loss: 0.5780873842017795, Training Accuracy: 82.5165%
Epoch: 41, Iteration: 819836, Loss: 0.5759892795974566, Training Accuracy: 82.5865%
Epoch: 42, Iteration: 839832, Loss: 0.5739189431091276, Training Accuracy: 82.6365%
Epoch: 43, Iteration: 859828, Loss: 0.5718758154758035, Training Accuracy: 82.7015%
Epoch: 44, Iteration: 879824, Loss: 0.5698593501237279, Training Accuracy: 82.7716%
Epoch: 45, Iteration: 899820, Loss: 0.5678690129386796, Training Accuracy: 82.8566%
Epoch: 46, Iteration: 919816, Loss: 0.5659042820327039, Training Accuracy: 82.9166%
Epoch: 47, Iteration: 939812, Loss: 0.5639646475066901, Training Accuracy: 82.9616%
Epoch: 48, Iteration: 959808, Loss: 0.5620496112100555, Training Accuracy: 83.0216%
Epoch: 49, Iteration: 979804, Loss: 0.5601586864986514, Training Accuracy: 83.0866%
Epoch: 50, Iteration: 999800, Loss: 0.5582913979918249, Training Accuracy: 83.1366%
Epoch: 51, Iteration: 1019796, Loss: 0.5564472813295113, Training Accuracy: 83.1916%
Epoch: 52, Iteration: 1039792, Loss: 0.5546258829300497, Training Accuracy: 83.2416%
Epoch: 53, Iteration: 1059788, Loss: 0.5528267597493779, Training Accuracy: 83.2917%
Epoch: 54, Iteration: 1079784, Loss: 0.5510494790421001, Training Accuracy: 83.3617%
Epoch: 55, Iteration: 1099780, Loss: 0.5492936181249374, Training Accuracy: 83.4067%
Epoch: 56, Iteration: 1119776, Loss: 0.5475587641429079, Training Accuracy: 83.4617%
Epoch: 57, Iteration: 1139772, Loss: 0.5458445138385843, Training Accuracy: 83.4867%
Epoch: 58, Iteration: 1159768, Loss: 0.5441504733246899, Training Accuracy: 83.5217%
Epoch: 59, Iteration: 1179764, Loss: 0.5424762578602806, Training Accuracy: 83.5967%
Epoch: 60, Iteration: 1199760, Loss: 0.5408214916306588, Training Accuracy: 83.6167%
Epoch: 61, Iteration: 1219756, Loss: 0.5391858075312239, Training Accuracy: 83.6617%
Epoch: 62, Iteration: 1239752, Loss: 0.5375688469553155, Training Accuracy: 83.6917%
Epoch: 63, Iteration: 1259748, Loss: 0.5359702595861906, Training Accuracy: 83.7267%
Epoch: 64, Iteration: 1279744, Loss: 0.5343897031931679, Training Accuracy: 83.7668%
Epoch: 65, Iteration: 1299740, Loss: 0.532826843431991, Training Accuracy: 83.7968%
Epoch: 66, Iteration: 1319736, Loss: 0.5312813536494522, Training Accuracy: 83.8518%
Epoch: 67, Iteration: 1339732, Loss: 0.529752914692259, Training Accuracy: 83.8718%
Epoch: 68, Iteration: 1359728, Loss: 0.5282412147201685, Training Accuracy: 83.9218%
Epoch: 69, Iteration: 1379724, Loss: 0.5267459490233579, Training Accuracy: 83.9268%
Epoch: 70, Iteration: 1399720, Loss: 0.5252668198439934, Training Accuracy: 83.9468%
Epoch: 71, Iteration: 1419716, Loss: 0.5238035362020107, Training Accuracy: 83.9668%
Epoch: 72, Iteration: 1439712, Loss: 0.5223558137249971, Training Accuracy: 83.9968%
Epoch: 73, Iteration: 1459708, Loss: 0.5209233744821844, Training Accuracy: 84.0018%
Epoch: 74, Iteration: 1479704, Loss: 0.5195059468224703, Training Accuracy: 84.0568%
Epoch: 75, Iteration: 1499700, Loss: 0.5181032652164157, Training Accuracy: 84.1068%
Epoch: 76, Iteration: 1519696, Loss: 0.5167150701021492, Training Accuracy: 84.1618%
Epoch: 77, Iteration: 1539692, Loss: 0.5153411077351338, Training Accuracy: 84.1918%
Epoch: 78, Iteration: 1559688, Loss: 0.513981130041694, Training Accuracy: 84.2068%
Epoch: 79, Iteration: 1579684, Loss: 0.5126348944762669, Training Accuracy: 84.2068%
Epoch: 80, Iteration: 1599680, Loss: 0.5113021638822872, Training Accuracy: 84.2368%
Epoch: 81, Iteration: 1619676, Loss: 0.5099827063566269, Training Accuracy: 84.2669%
Epoch: 82, Iteration: 1639672, Loss: 0.50867629511754, Training Accuracy: 84.2919%
Epoch: 83, Iteration: 1659668, Loss: 0.5073827083760064, Training Accuracy: 84.3369%
Epoch: 84, Iteration: 1679664, Loss: 0.5061017292104327, Training Accuracy: 84.3619%
Epoch: 85, Iteration: 1699660, Loss: 0.5048331454446023, Training Accuracy: 84.3969%
Epoch: 86, Iteration: 1719656, Loss: 0.5035767495288332, Training Accuracy: 84.4569%
Epoch: 87, Iteration: 1739652, Loss: 0.5023323384242329, Training Accuracy: 84.5169%
Epoch: 88, Iteration: 1759648, Loss: 0.5010997134900187, Training Accuracy: 84.5419%
Epoch: 89, Iteration: 1779644, Loss: 0.4998786803737897, Training Accuracy: 84.5769%
Epoch: 90, Iteration: 1799640, Loss: 0.4986690489047017, Training Accuracy: 84.6019%
Epoch: 91, Iteration: 1819636, Loss: 0.4974706329894745, Training Accuracy: 84.6169%
Epoch: 92, Iteration: 1839632, Loss: 0.4962832505111441, Training Accuracy: 84.6569%
Epoch: 93, Iteration: 1859628, Loss: 0.4951067232305096, Training Accuracy: 84.7169%
Epoch: 94, Iteration: 1879624, Loss: 0.4939408766901916, Training Accuracy: 84.7319%
Epoch: 95, Iteration: 1899620, Loss: 0.4927855401212489, Training Accuracy: 84.757%
Epoch: 96, Iteration: 1919616, Loss: 0.4916405463522654, Training Accuracy: 84.817%
Epoch: 97, Iteration: 1939612, Loss: 0.4905057317208754, Training Accuracy: 84.827%
Epoch: 98, Iteration: 1959608, Loss: 0.4893809359876292, Training Accuracy: 84.877%
Epoch: 99, Iteration: 1979604, Loss: 0.4882660022521648, Training Accuracy: 84.907%
Epoch: 100, Iteration: 1999600, Loss: 0.4871607768716012, Training Accuracy: 84.932%
training logistic regression elapsed time: 92735.7 ms

Epoch: 1, Iteration: 19996, Loss: 0.6892426909423108, Training Accuracy: 72.6045%
Epoch: 2, Iteration: 39992, Loss: 0.6854232781996995, Training Accuracy: 73.4247%
Epoch: 3, Iteration: 59988, Loss: 0.6816810808042315, Training Accuracy: 74.1548%
Epoch: 4, Iteration: 79984, Loss: 0.678010104006042, Training Accuracy: 74.93%
Epoch: 5, Iteration: 99980, Loss: 0.6744057278252611, Training Accuracy: 75.4801%
Epoch: 6, Iteration: 119976, Loss: 0.6708643423013532, Training Accuracy: 76.1602%
Epoch: 7, Iteration: 139972, Loss: 0.667383077762068, Training Accuracy: 76.6503%
Epoch: 8, Iteration: 159968, Loss: 0.6639596058838515, Training Accuracy: 77.2054%
Epoch: 9, Iteration: 179964, Loss: 0.6605919933826178, Training Accuracy: 77.6155%
Epoch: 10, Iteration: 199960, Loss: 0.6572785947517443, Training Accuracy: 78.0556%
Epoch: 11, Iteration: 219956, Loss: 0.6540179739078041, Training Accuracy: 78.3357%
Epoch: 12, Iteration: 239952, Loss: 0.6508088471887928, Training Accuracy: 78.5907%
Epoch: 13, Iteration: 259948, Loss: 0.6476500420848386, Training Accuracy: 78.8958%
Epoch: 14, Iteration: 279944, Loss: 0.6445404675281035, Training Accuracy: 79.1208%
Epoch: 15, Iteration: 299940, Loss: 0.6414790926483912, Training Accuracy: 79.2609%
Epoch: 16, Iteration: 319936, Loss: 0.6384649317057591, Training Accuracy: 79.4559%
Epoch: 17, Iteration: 339932, Loss: 0.6354970335103332, Training Accuracy: 79.6659%
Epoch: 18, Iteration: 359928, Loss: 0.632574474084705, Training Accuracy: 79.906%
Epoch: 19, Iteration: 379924, Loss: 0.6296963516545111, Training Accuracy: 80.096%
Epoch: 20, Iteration: 399920, Loss: 0.6268617832975368, Training Accuracy: 80.3011%
Epoch: 21, Iteration: 419916, Loss: 0.6240699027626716, Training Accuracy: 80.4861%
Epoch: 22, Iteration: 439912, Loss: 0.621319859103627, Training Accuracy: 80.5961%
Epoch: 23, Iteration: 459908, Loss: 0.6186108158707438, Training Accuracy: 80.7111%
Epoch: 24, Iteration: 479904, Loss: 0.6159419506764494, Training Accuracy: 80.8962%
Epoch: 25, Iteration: 499900, Loss: 0.6133124550029925, Training Accuracy: 81.0812%
Epoch: 26, Iteration: 519896, Loss: 0.6107215341595824, Training Accuracy: 81.1962%
Epoch: 27, Iteration: 539892, Loss: 0.6081684073243453, Training Accuracy: 81.3263%
Epoch: 28, Iteration: 559888, Loss: 0.6056523076267062, Training Accuracy: 81.5063%
Epoch: 29, Iteration: 579884, Loss: 0.6031724822404969, Training Accuracy: 81.6263%
Epoch: 30, Iteration: 599880, Loss: 0.6007281924685334, Training Accuracy: 81.7463%
Epoch: 31, Iteration: 619876, Loss: 0.5983187138067719, Training Accuracy: 81.8314%
Epoch: 32, Iteration: 639872, Loss: 0.5959433359813134, Training Accuracy: 81.9364%
Epoch: 33, Iteration: 659868, Loss: 0.5936013629551183, Training Accuracy: 82.0114%
Epoch: 34, Iteration: 679864, Loss: 0.5912921129036439, Training Accuracy: 82.1014%
Epoch: 35, Iteration: 699860, Loss: 0.5890149181601985, Training Accuracy: 82.1814%
Epoch: 36, Iteration: 719856, Loss: 0.5867691251328105, Training Accuracy: 82.2464%
Epoch: 37, Iteration: 739852, Loss: 0.5845540941949295, Training Accuracy: 82.3315%
Epoch: 38, Iteration: 759848, Loss: 0.5823691995526007, Training Accuracy: 82.4065%
Epoch: 39, Iteration: 779844, Loss: 0.5802138290908248, Training Accuracy: 82.4215%
Epoch: 40, Iteration: 799840, Loss: 0.5780873842017795, Training Accuracy: 82.5165%
Epoch: 41, Iteration: 819836, Loss: 0.5759892795974566, Training Accuracy: 82.5865%
Epoch: 42, Iteration: 839832, Loss: 0.5739189431091276, Training Accuracy: 82.6365%
Epoch: 43, Iteration: 859828, Loss: 0.5718758154758035, Training Accuracy: 82.7015%
Epoch: 44, Iteration: 879824, Loss: 0.5698593501237279, Training Accuracy: 82.7716%
Epoch: 45, Iteration: 899820, Loss: 0.5678690129386796, Training Accuracy: 82.8566%
Epoch: 46, Iteration: 919816, Loss: 0.5659042820327039, Training Accuracy: 82.9166%
Epoch: 47, Iteration: 939812, Loss: 0.5639646475066901, Training Accuracy: 82.9616%
Epoch: 48, Iteration: 959808, Loss: 0.5620496112100555, Training Accuracy: 83.0216%
Epoch: 49, Iteration: 979804, Loss: 0.5601586864986514, Training Accuracy: 83.0866%
Epoch: 50, Iteration: 999800, Loss: 0.5582913979918249, Training Accuracy: 83.1366%
Epoch: 51, Iteration: 1019796, Loss: 0.5564472813295113, Training Accuracy: 83.1916%
Epoch: 52, Iteration: 1039792, Loss: 0.5546258829300497, Training Accuracy: 83.2416%
Epoch: 53, Iteration: 1059788, Loss: 0.5528267597493779, Training Accuracy: 83.2917%
Epoch: 54, Iteration: 1079784, Loss: 0.5510494790421001, Training Accuracy: 83.3617%
Epoch: 55, Iteration: 1099780, Loss: 0.5492936181249374, Training Accuracy: 83.4067%
Epoch: 56, Iteration: 1119776, Loss: 0.5475587641429079, Training Accuracy: 83.4617%
Epoch: 57, Iteration: 1139772, Loss: 0.5458445138385843, Training Accuracy: 83.4867%
Epoch: 58, Iteration: 1159768, Loss: 0.5441504733246899, Training Accuracy: 83.5217%
Epoch: 59, Iteration: 1179764, Loss: 0.5424762578602806, Training Accuracy: 83.5967%
Epoch: 60, Iteration: 1199760, Loss: 0.5408214916306588, Training Accuracy: 83.6167%
Epoch: 61, Iteration: 1219756, Loss: 0.5391858075312239, Training Accuracy: 83.6617%
Epoch: 62, Iteration: 1239752, Loss: 0.5375688469553155, Training Accuracy: 83.6917%
Epoch: 63, Iteration: 1259748, Loss: 0.5359702595861906, Training Accuracy: 83.7267%
Epoch: 64, Iteration: 1279744, Loss: 0.5343897031931679, Training Accuracy: 83.7668%
Epoch: 65, Iteration: 1299740, Loss: 0.532826843431991, Training Accuracy: 83.7968%
Epoch: 66, Iteration: 1319736, Loss: 0.5312813536494522, Training Accuracy: 83.8518%
Epoch: 67, Iteration: 1339732, Loss: 0.529752914692259, Training Accuracy: 83.8718%
Epoch: 68, Iteration: 1359728, Loss: 0.5282412147201685, Training Accuracy: 83.9218%
Epoch: 69, Iteration: 1379724, Loss: 0.5267459490233579, Training Accuracy: 83.9268%
Epoch: 70, Iteration: 1399720, Loss: 0.5252668198439934, Training Accuracy: 83.9468%
Epoch: 71, Iteration: 1419716, Loss: 0.5238035362020107, Training Accuracy: 83.9668%
Epoch: 72, Iteration: 1439712, Loss: 0.5223558137249971, Training Accuracy: 83.9968%
Epoch: 73, Iteration: 1459708, Loss: 0.5209233744821844, Training Accuracy: 84.0018%
Epoch: 74, Iteration: 1479704, Loss: 0.5195059468224703, Training Accuracy: 84.0568%
Epoch: 75, Iteration: 1499700, Loss: 0.5181032652164157, Training Accuracy: 84.1068%
Epoch: 76, Iteration: 1519696, Loss: 0.5167150701021492, Training Accuracy: 84.1618%
Epoch: 77, Iteration: 1539692, Loss: 0.5153411077351338, Training Accuracy: 84.1918%
Epoch: 78, Iteration: 1559688, Loss: 0.513981130041694, Training Accuracy: 84.2068%
Epoch: 79, Iteration: 1579684, Loss: 0.5126348944762669, Training Accuracy: 84.2068%
Epoch: 80, Iteration: 1599680, Loss: 0.5113021638822872, Training Accuracy: 84.2368%
Epoch: 81, Iteration: 1619676, Loss: 0.5099827063566269, Training Accuracy: 84.2669%
Epoch: 82, Iteration: 1639672, Loss: 0.50867629511754, Training Accuracy: 84.2919%
Epoch: 83, Iteration: 1659668, Loss: 0.5073827083760064, Training Accuracy: 84.3369%
Epoch: 84, Iteration: 1679664, Loss: 0.5061017292104327, Training Accuracy: 84.3619%
Epoch: 85, Iteration: 1699660, Loss: 0.5048331454446023, Training Accuracy: 84.3969%
Epoch: 86, Iteration: 1719656, Loss: 0.5035767495288332, Training Accuracy: 84.4569%
Epoch: 87, Iteration: 1739652, Loss: 0.5023323384242329, Training Accuracy: 84.5169%
Epoch: 88, Iteration: 1759648, Loss: 0.5010997134900187, Training Accuracy: 84.5419%
Epoch: 89, Iteration: 1779644, Loss: 0.4998786803737897, Training Accuracy: 84.5769%
Epoch: 90, Iteration: 1799640, Loss: 0.4986690489047017, Training Accuracy: 84.6019%
Epoch: 91, Iteration: 1819636, Loss: 0.4974706329894745, Training Accuracy: 84.6169%
Epoch: 92, Iteration: 1839632, Loss: 0.4962832505111441, Training Accuracy: 84.6569%
Epoch: 93, Iteration: 1859628, Loss: 0.4951067232305096, Training Accuracy: 84.7169%
Epoch: 94, Iteration: 1879624, Loss: 0.4939408766901916, Training Accuracy: 84.7319%
Epoch: 95, Iteration: 1899620, Loss: 0.4927855401212489, Training Accuracy: 84.757%
Epoch: 96, Iteration: 1919616, Loss: 0.4916405463522654, Training Accuracy: 84.817%
Epoch: 97, Iteration: 1939612, Loss: 0.4905057317208754, Training Accuracy: 84.827%
Epoch: 98, Iteration: 1959608, Loss: 0.4893809359876292, Training Accuracy: 84.877%
Epoch: 99, Iteration: 1979604, Loss: 0.4882660022521648, Training Accuracy: 84.907%
Epoch: 100, Iteration: 1999600, Loss: 0.4871607768716012, Training Accuracy: 84.932%
training logistic regression elapsed time: 93357.7 ms

Epoch: 1, Iteration: 19996, Loss: 0.6892426909423108, Training Accuracy: 72.6045%
Epoch: 2, Iteration: 39992, Loss: 0.6854232781996995, Training Accuracy: 73.4247%
Epoch: 3, Iteration: 59988, Loss: 0.6816810808042315, Training Accuracy: 74.1548%
Epoch: 4, Iteration: 79984, Loss: 0.678010104006042, Training Accuracy: 74.93%
Epoch: 5, Iteration: 99980, Loss: 0.6744057278252611, Training Accuracy: 75.4801%
Epoch: 6, Iteration: 119976, Loss: 0.6708643423013532, Training Accuracy: 76.1602%
Epoch: 7, Iteration: 139972, Loss: 0.667383077762068, Training Accuracy: 76.6503%
Epoch: 8, Iteration: 159968, Loss: 0.6639596058838515, Training Accuracy: 77.2054%
Epoch: 9, Iteration: 179964, Loss: 0.6605919933826178, Training Accuracy: 77.6155%
Epoch: 10, Iteration: 199960, Loss: 0.6572785947517443, Training Accuracy: 78.0556%
Epoch: 11, Iteration: 219956, Loss: 0.6540179739078041, Training Accuracy: 78.3357%
Epoch: 12, Iteration: 239952, Loss: 0.6508088471887928, Training Accuracy: 78.5907%
Epoch: 13, Iteration: 259948, Loss: 0.6476500420848386, Training Accuracy: 78.8958%
Epoch: 14, Iteration: 279944, Loss: 0.6445404675281035, Training Accuracy: 79.1208%
Epoch: 15, Iteration: 299940, Loss: 0.6414790926483912, Training Accuracy: 79.2609%
Epoch: 16, Iteration: 319936, Loss: 0.6384649317057591, Training Accuracy: 79.4559%
Epoch: 17, Iteration: 339932, Loss: 0.6354970335103332, Training Accuracy: 79.6659%
Epoch: 18, Iteration: 359928, Loss: 0.632574474084705, Training Accuracy: 79.906%
Epoch: 19, Iteration: 379924, Loss: 0.6296963516545111, Training Accuracy: 80.096%
Epoch: 20, Iteration: 399920, Loss: 0.6268617832975368, Training Accuracy: 80.3011%
Epoch: 21, Iteration: 419916, Loss: 0.6240699027626716, Training Accuracy: 80.4861%
Epoch: 22, Iteration: 439912, Loss: 0.621319859103627, Training Accuracy: 80.5961%
Epoch: 23, Iteration: 459908, Loss: 0.6186108158707438, Training Accuracy: 80.7111%
Epoch: 24, Iteration: 479904, Loss: 0.6159419506764494, Training Accuracy: 80.8962%
Epoch: 25, Iteration: 499900, Loss: 0.6133124550029925, Training Accuracy: 81.0812%
Epoch: 26, Iteration: 519896, Loss: 0.6107215341595824, Training Accuracy: 81.1962%
Epoch: 27, Iteration: 539892, Loss: 0.6081684073243453, Training Accuracy: 81.3263%
Epoch: 28, Iteration: 559888, Loss: 0.6056523076267062, Training Accuracy: 81.5063%
Epoch: 29, Iteration: 579884, Loss: 0.6031724822404969, Training Accuracy: 81.6263%
Epoch: 30, Iteration: 599880, Loss: 0.6007281924685334, Training Accuracy: 81.7463%
Epoch: 31, Iteration: 619876, Loss: 0.5983187138067719, Training Accuracy: 81.8314%
Epoch: 32, Iteration: 639872, Loss: 0.5959433359813134, Training Accuracy: 81.9364%
Epoch: 33, Iteration: 659868, Loss: 0.5936013629551183, Training Accuracy: 82.0114%
Epoch: 34, Iteration: 679864, Loss: 0.5912921129036439, Training Accuracy: 82.1014%
Epoch: 35, Iteration: 699860, Loss: 0.5890149181601985, Training Accuracy: 82.1814%
Epoch: 36, Iteration: 719856, Loss: 0.5867691251328105, Training Accuracy: 82.2464%
Epoch: 37, Iteration: 739852, Loss: 0.5845540941949295, Training Accuracy: 82.3315%
Epoch: 38, Iteration: 759848, Loss: 0.5823691995526007, Training Accuracy: 82.4065%
Epoch: 39, Iteration: 779844, Loss: 0.5802138290908248, Training Accuracy: 82.4215%
Epoch: 40, Iteration: 799840, Loss: 0.5780873842017795, Training Accuracy: 82.5165%
Epoch: 41, Iteration: 819836, Loss: 0.5759892795974566, Training Accuracy: 82.5865%
Epoch: 42, Iteration: 839832, Loss: 0.5739189431091276, Training Accuracy: 82.6365%
Epoch: 43, Iteration: 859828, Loss: 0.5718758154758035, Training Accuracy: 82.7015%
Epoch: 44, Iteration: 879824, Loss: 0.5698593501237279, Training Accuracy: 82.7716%
Epoch: 45, Iteration: 899820, Loss: 0.5678690129386796, Training Accuracy: 82.8566%
Epoch: 46, Iteration: 919816, Loss: 0.5659042820327039, Training Accuracy: 82.9166%
Epoch: 47, Iteration: 939812, Loss: 0.5639646475066901, Training Accuracy: 82.9616%
Epoch: 48, Iteration: 959808, Loss: 0.5620496112100555, Training Accuracy: 83.0216%
Epoch: 49, Iteration: 979804, Loss: 0.5601586864986514, Training Accuracy: 83.0866%
Epoch: 50, Iteration: 999800, Loss: 0.5582913979918249, Training Accuracy: 83.1366%
Epoch: 51, Iteration: 1019796, Loss: 0.5564472813295113, Training Accuracy: 83.1916%
Epoch: 52, Iteration: 1039792, Loss: 0.5546258829300497, Training Accuracy: 83.2416%
Epoch: 53, Iteration: 1059788, Loss: 0.5528267597493779, Training Accuracy: 83.2917%
Epoch: 54, Iteration: 1079784, Loss: 0.5510494790421001, Training Accuracy: 83.3617%
Epoch: 55, Iteration: 1099780, Loss: 0.5492936181249374, Training Accuracy: 83.4067%
Epoch: 56, Iteration: 1119776, Loss: 0.5475587641429079, Training Accuracy: 83.4617%
Epoch: 57, Iteration: 1139772, Loss: 0.5458445138385843, Training Accuracy: 83.4867%
Epoch: 58, Iteration: 1159768, Loss: 0.5441504733246899, Training Accuracy: 83.5217%
Epoch: 59, Iteration: 1179764, Loss: 0.5424762578602806, Training Accuracy: 83.5967%
Epoch: 60, Iteration: 1199760, Loss: 0.5408214916306588, Training Accuracy: 83.6167%
Epoch: 61, Iteration: 1219756, Loss: 0.5391858075312239, Training Accuracy: 83.6617%
Epoch: 62, Iteration: 1239752, Loss: 0.5375688469553155, Training Accuracy: 83.6917%
Epoch: 63, Iteration: 1259748, Loss: 0.5359702595861906, Training Accuracy: 83.7267%
Epoch: 64, Iteration: 1279744, Loss: 0.5343897031931679, Training Accuracy: 83.7668%
Epoch: 65, Iteration: 1299740, Loss: 0.532826843431991, Training Accuracy: 83.7968%
Epoch: 66, Iteration: 1319736, Loss: 0.5312813536494522, Training Accuracy: 83.8518%
Epoch: 67, Iteration: 1339732, Loss: 0.529752914692259, Training Accuracy: 83.8718%
Epoch: 68, Iteration: 1359728, Loss: 0.5282412147201685, Training Accuracy: 83.9218%
Epoch: 69, Iteration: 1379724, Loss: 0.5267459490233579, Training Accuracy: 83.9268%
Epoch: 70, Iteration: 1399720, Loss: 0.5252668198439934, Training Accuracy: 83.9468%
Epoch: 71, Iteration: 1419716, Loss: 0.5238035362020107, Training Accuracy: 83.9668%
Epoch: 72, Iteration: 1439712, Loss: 0.5223558137249971, Training Accuracy: 83.9968%
Epoch: 73, Iteration: 1459708, Loss: 0.5209233744821844, Training Accuracy: 84.0018%
Epoch: 74, Iteration: 1479704, Loss: 0.5195059468224703, Training Accuracy: 84.0568%
Epoch: 75, Iteration: 1499700, Loss: 0.5181032652164157, Training Accuracy: 84.1068%
Epoch: 76, Iteration: 1519696, Loss: 0.5167150701021492, Training Accuracy: 84.1618%
Epoch: 77, Iteration: 1539692, Loss: 0.5153411077351338, Training Accuracy: 84.1918%
Epoch: 78, Iteration: 1559688, Loss: 0.513981130041694, Training Accuracy: 84.2068%
Epoch: 79, Iteration: 1579684, Loss: 0.5126348944762669, Training Accuracy: 84.2068%
Epoch: 80, Iteration: 1599680, Loss: 0.5113021638822872, Training Accuracy: 84.2368%
Epoch: 81, Iteration: 1619676, Loss: 0.5099827063566269, Training Accuracy: 84.2669%
Epoch: 82, Iteration: 1639672, Loss: 0.50867629511754, Training Accuracy: 84.2919%
Epoch: 83, Iteration: 1659668, Loss: 0.5073827083760064, Training Accuracy: 84.3369%
Epoch: 84, Iteration: 1679664, Loss: 0.5061017292104327, Training Accuracy: 84.3619%
Epoch: 85, Iteration: 1699660, Loss: 0.5048331454446023, Training Accuracy: 84.3969%
Epoch: 86, Iteration: 1719656, Loss: 0.5035767495288332, Training Accuracy: 84.4569%
Epoch: 87, Iteration: 1739652, Loss: 0.5023323384242329, Training Accuracy: 84.5169%
Epoch: 88, Iteration: 1759648, Loss: 0.5010997134900187, Training Accuracy: 84.5419%
Epoch: 89, Iteration: 1779644, Loss: 0.4998786803737897, Training Accuracy: 84.5769%
Epoch: 90, Iteration: 1799640, Loss: 0.4986690489047017, Training Accuracy: 84.6019%
Epoch: 91, Iteration: 1819636, Loss: 0.4974706329894745, Training Accuracy: 84.6169%
Epoch: 92, Iteration: 1839632, Loss: 0.4962832505111441, Training Accuracy: 84.6569%
Epoch: 93, Iteration: 1859628, Loss: 0.4951067232305096, Training Accuracy: 84.7169%
Epoch: 94, Iteration: 1879624, Loss: 0.4939408766901916, Training Accuracy: 84.7319%
Epoch: 95, Iteration: 1899620, Loss: 0.4927855401212489, Training Accuracy: 84.757%
Epoch: 96, Iteration: 1919616, Loss: 0.4916405463522654, Training Accuracy: 84.817%
Epoch: 97, Iteration: 1939612, Loss: 0.4905057317208754, Training Accuracy: 84.827%
Epoch: 98, Iteration: 1959608, Loss: 0.4893809359876292, Training Accuracy: 84.877%
Epoch: 99, Iteration: 1979604, Loss: 0.4882660022521648, Training Accuracy: 84.907%
Epoch: 100, Iteration: 1999600, Loss: 0.4871607768716012, Training Accuracy: 84.932%
training logistic regression elapsed time: 92580.5 ms

training CA-logistic regression average elapsed time: 92856.8 ms
training CA-logistic regression max elapsed time: 93357.7 ms
training CA-logistic regression min elapsed time: 92567.2 ms
--------------------------------------------------------------------------
mpirun has exited due to process rank 17 with PID 0 on
node compute0211 exiting improperly. There are three reasons this could occur:

1. this process did not call "init" before exiting, but others in
the job did. This can cause a job to hang indefinitely while it waits
for all processes to call "init". By rule, if one process calls "init",
then ALL processes must call "init" prior to termination.

2. this process called "init", but exited without calling "finalize".
By rule, all processes that call "init" MUST call "finalize" prior to
exiting or it will be considered an "abnormal termination"

3. this process called "MPI_Abort" or "orte_abort" and the mca parameter
orte_create_session_dirs is set to false. In this case, the run-time cannot
detect that the abort call was an abnormal termination. Hence, the only
error message you will receive is this one.

This may have caused other processes in the application to be
terminated by signals sent by mpirun (as reported here).

You can avoid this message by specifying -quiet on the mpirun command line.
--------------------------------------------------------------------------
